-- Merging decision tree log ---
manifest
ADDED from F:\New folder\PickandDrop\app\src\main\AndroidManifest.xml:2:1-64:12
INJECTED from F:\New folder\PickandDrop\app\src\main\AndroidManifest.xml:2:1-64:12
INJECTED from F:\New folder\PickandDrop\app\src\main\AndroidManifest.xml:2:1-64:12
INJECTED from F:\New folder\PickandDrop\app\src\main\AndroidManifest.xml:2:1-64:12
MERGED from [com.android.support:design:28.0.0] C:\Users\Nezamul Islam A R\.gradle\caches\transforms-1\files-1.1\design-28.0.0.aar\06f55c7d9e71eedb2b5d87c6ae6e91c0\AndroidManifest.xml:17:1-24:12
MERGED from [com.android.support:appcompat-v7:28.0.0] C:\Users\Nezamul Islam A R\.gradle\caches\transforms-1\files-1.1\appcompat-v7-28.0.0.aar\12af6fbe64f2aa26b08a3df6afc47758\AndroidManifest.xml:17:1-22:12
MERGED from [com.android.support.constraint:constraint-layout:1.1.3] C:\Users\Nezamul Islam A R\.gradle\caches\transforms-1\files-1.1\constraint-layout-1.1.3.aar\eb2d7f7d3f52fa6455ee139ce5e07837\AndroidManifest.xml:2:1-11:12
MERGED from [com.jakewharton:butterknife:8.8.1] C:\Users\Nezamul Islam A R\.gradle\caches\transforms-1\files-1.1\butterknife-8.8.1.aar\7670948eb0aba83b1e79f24d42aa1587\AndroidManifest.xml:2:1-7:12
MERGED from [com.google.firebase:firebase-database:16.0.3] C:\Users\Nezamul Islam A R\.gradle\caches\transforms-1\files-1.1\firebase-database-16.0.3.aar\befaebdf03420041e94f9c5b1a96a4b3\AndroidManifest.xml:15:1-25:12
MERGED from [com.google.firebase:firebase-core:16.0.7] C:\Users\Nezamul Islam A R\.gradle\caches\transforms-1\files-1.1\firebase-core-16.0.7.aar\8b42f7fdd8d9c74d5041d59f9501138a\AndroidManifest.xml:2:1-9:12
MERGED from [com.google.android.gms:play-services-location:16.0.0] C:\Users\Nezamul Islam A R\.gradle\caches\transforms-1\files-1.1\play-services-location-16.0.0.aar\53f34029f1799046da4625434dbf33e1\AndroidManifest.xml:2:1-9:12
MERGED from [com.google.android.gms:play-services-maps:16.0.0] C:\Users\Nezamul Islam A R\.gradle\caches\transforms-1\files-1.1\play-services-maps-16.0.0.aar\b800ef65f892be8e822ef31d1d6a55d1\AndroidManifest.xml:17:1-32:12
MERGED from [com.google.firebase:firebase-measurement-connector-impl:17.0.5] C:\Users\Nezamul Islam A R\.gradle\caches\transforms-1\files-1.1\firebase-measurement-connector-impl-17.0.5.aar\f6453ba96c8272557e95e171e0eaed32\AndroidManifest.xml:17:1-34:12
MERGED from [com.google.firebase:firebase-analytics:16.3.0] C:\Users\Nezamul Islam A R\.gradle\caches\transforms-1\files-1.1\firebase-analytics-16.3.0.aar\b388fcc95f72c9013798a41787e6dbe9\AndroidManifest.xml:17:1-55:12
MERGED from [com.google.android.gms:play-services-measurement-api:16.3.0] C:\Users\Nezamul Islam A R\.gradle\caches\transforms-1\files-1.1\play-services-measurement-api-16.3.0.aar\30d0146701815e2766f703e3f1ac475a\AndroidManifest.xml:17:1-25:12
MERGED from [com.google.firebase:firebase-analytics-impl:16.3.0] C:\Users\Nezamul Islam A R\.gradle\caches\transforms-1\files-1.1\firebase-analytics-impl-16.3.0.aar\bf56a641fc2bcce093f6fe289463a5e8\AndroidManifest.xml:17:1-40:12
MERGED from [com.google.firebase:firebase-iid:17.0.3] C:\Users\Nezamul Islam A R\.gradle\caches\transforms-1\files-1.1\firebase-iid-17.0.3.aar\d85e6fbd56ae18b452d55f4ff896b738\AndroidManifest.xml:17:1-59:12
MERGED from [com.google.firebase:firebase-iid-interop:16.0.1] C:\Users\Nezamul Islam A R\.gradle\caches\transforms-1\files-1.1\firebase-iid-interop-16.0.1.aar\b659ea158fa3e52c72507a5bc954e01f\AndroidManifest.xml:2:1-10:12
MERGED from [com.google.android.gms:play-services-base:16.0.1] C:\Users\Nezamul Islam A R\.gradle\caches\transforms-1\files-1.1\play-services-base-16.0.1.aar\d05afb522c487187c3a5dccdfa82015b\AndroidManifest.xml:17:1-29:12
MERGED from [com.google.firebase:firebase-common:16.0.3] C:\Users\Nezamul Islam A R\.gradle\caches\transforms-1\files-1.1\firebase-common-16.0.3.aar\4f2d0e282b536472ae01116e450a2719\AndroidManifest.xml:2:1-17:12
MERGED from [com.google.android.gms:play-services-tasks:16.0.1] C:\Users\Nezamul Islam A R\.gradle\caches\transforms-1\files-1.1\play-services-tasks-16.0.1.aar\99762186ec3fa04ef1bf0bae31cdf45d\AndroidManifest.xml:2:1-9:12
MERGED from [com.google.firebase:firebase-database-collection:16.0.0] C:\Users\Nezamul Islam A R\.gradle\caches\transforms-1\files-1.1\firebase-database-collection-16.0.0.aar\5cb786a85b52df404e51b11dbad0f201\AndroidManifest.xml:2:1-8:12
MERGED from [com.google.android.gms:play-services-places-placereport:16.0.0] C:\Users\Nezamul Islam A R\.gradle\caches\transforms-1\files-1.1\play-services-places-placereport-16.0.0.aar\c2a328380fd8cd53a356f09bd4fdd83c\AndroidManifest.xml:17:1-24:12
MERGED from [com.google.android.gms:play-services-measurement-base:16.3.0] C:\Users\Nezamul Islam A R\.gradle\caches\transforms-1\files-1.1\play-services-measurement-base-16.3.0.aar\1fba1f36844216b5a6da6d3d7730dd25\AndroidManifest.xml:2:1-9:12
MERGED from [com.google.android.gms:play-services-stats:16.0.1] C:\Users\Nezamul Islam A R\.gradle\caches\transforms-1\files-1.1\play-services-stats-16.0.1.aar\cb982706f9b7931fabd6773f9fe1d286\AndroidManifest.xml:2:1-9:12
MERGED from [com.google.firebase:firebase-measurement-connector:17.0.1] C:\Users\Nezamul Islam A R\.gradle\caches\transforms-1\files-1.1\firebase-measurement-connector-17.0.1.aar\f9096331b545e39e21798d3240e199bb\AndroidManifest.xml:17:1-25:12
MERGED from [com.google.android.gms:play-services-ads-identifier:16.0.0] C:\Users\Nezamul Islam A R\.gradle\caches\transforms-1\files-1.1\play-services-ads-identifier-16.0.0.aar\a67a6cd635dc47a7308fe4c8a0f24d58\AndroidManifest.xml:17:1-24:12
MERGED from [com.google.android.gms:play-services-basement:16.0.1] C:\Users\Nezamul Islam A R\.gradle\caches\transforms-1\files-1.1\play-services-basement-16.0.1.aar\ff510168ec72f5182c358422ee98c67b\AndroidManifest.xml:17:1-28:12
MERGED from [com.android.support:support-v4:26.1.0] C:\Users\Nezamul Islam A R\.gradle\caches\transforms-1\files-1.1\support-v4-26.1.0.aar\f580f90daf9ba18c1b44691113b937e0\AndroidManifest.xml:17:1-31:12
MERGED from [com.android.support:support-fragment:28.0.0] C:\Users\Nezamul Islam A R\.gradle\caches\transforms-1\files-1.1\support-fragment-28.0.0.aar\78930a794ca910dfcd94ed2d9714bfe0\AndroidManifest.xml:17:1-22:12
MERGED from [com.android.support:animated-vector-drawable:28.0.0] C:\Users\Nezamul Islam A R\.gradle\caches\transforms-1\files-1.1\animated-vector-drawable-28.0.0.aar\4c4d958a2e99a428b03e74ad8c6957fa\AndroidManifest.xml:17:1-22:12
MERGED from [com.android.support:recyclerview-v7:28.0.0] C:\Users\Nezamul Islam A R\.gradle\caches\transforms-1\files-1.1\recyclerview-v7-28.0.0.aar\5bc7419001de8db83b15a707cd97c521\AndroidManifest.xml:17:1-22:12
MERGED from [com.android.support:support-core-ui:28.0.0] C:\Users\Nezamul Islam A R\.gradle\caches\transforms-1\files-1.1\support-core-ui-28.0.0.aar\7d44091a25e59920f631a59bd2045826\AndroidManifest.xml:17:1-22:12
MERGED from [com.android.support:support-core-utils:28.0.0] C:\Users\Nezamul Islam A R\.gradle\caches\transforms-1\files-1.1\support-core-utils-28.0.0.aar\185e980ee302aa57a0864c491d09a59e\AndroidManifest.xml:17:1-22:12
MERGED from [com.android.support:support-vector-drawable:28.0.0] C:\Users\Nezamul Islam A R\.gradle\caches\transforms-1\files-1.1\support-vector-drawable-28.0.0.aar\b6ae3bcc951ce0091c417b8dff79b6a5\AndroidManifest.xml:17:1-22:12
MERGED from [com.android.support:transition:28.0.0] C:\Users\Nezamul Islam A R\.gradle\caches\transforms-1\files-1.1\transition-28.0.0.aar\70327d31ceea406246f4b9130a29e701\AndroidManifest.xml:17:1-22:12
MERGED from [com.android.support:loader:28.0.0] C:\Users\Nezamul Islam A R\.gradle\caches\transforms-1\files-1.1\loader-28.0.0.aar\c6cd08df9901d04dc6f9e2f763cd42a9\AndroidManifest.xml:17:1-22:12
MERGED from [com.android.support:viewpager:28.0.0] C:\Users\Nezamul Islam A R\.gradle\caches\transforms-1\files-1.1\viewpager-28.0.0.aar\499f44b69764efecd8c6366fc7974948\AndroidManifest.xml:17:1-22:12
MERGED from [com.android.support:coordinatorlayout:28.0.0] C:\Users\Nezamul Islam A R\.gradle\caches\transforms-1\files-1.1\coordinatorlayout-28.0.0.aar\f996163f40aa6cf26c87103b1d299955\AndroidManifest.xml:17:1-22:12
MERGED from [com.android.support:drawerlayout:28.0.0] C:\Users\Nezamul Islam A R\.gradle\caches\transforms-1\files-1.1\drawerlayout-28.0.0.aar\06f4888d23808e721119b69bc0f2dc82\AndroidManifest.xml:17:1-22:12
MERGED from [com.android.support:slidingpanelayout:28.0.0] C:\Users\Nezamul Islam A R\.gradle\caches\transforms-1\files-1.1\slidingpanelayout-28.0.0.aar\9d6fb5c38251d15754d2710ad58e1637\AndroidManifest.xml:17:1-22:12
MERGED from [com.android.support:customview:28.0.0] C:\Users\Nezamul Islam A R\.gradle\caches\transforms-1\files-1.1\customview-28.0.0.aar\7d5f6fb2067f6e3e6945e3bcad2c2777\AndroidManifest.xml:17:1-22:12
MERGED from [com.android.support:swiperefreshlayout:28.0.0] C:\Users\Nezamul Islam A R\.gradle\caches\transforms-1\files-1.1\swiperefreshlayout-28.0.0.aar\4a5a5f1f3f920642dec5c6766b6eb34f\AndroidManifest.xml:17:1-22:12
MERGED from [com.android.support:asynclayoutinflater:28.0.0] C:\Users\Nezamul Islam A R\.gradle\caches\transforms-1\files-1.1\asynclayoutinflater-28.0.0.aar\52882397cee3f06385cfd4aebe1cad3b\AndroidManifest.xml:17:1-22:12
MERGED from [com.android.support:support-media-compat:26.1.0] C:\Users\Nezamul Islam A R\.gradle\caches\transforms-1\files-1.1\support-media-compat-26.1.0.aar\60d85b47be71b438666719ee1c869528\AndroidManifest.xml:17:1-31:12
MERGED from [com.android.support:support-compat:28.0.0] C:\Users\Nezamul Islam A R\.gradle\caches\transforms-1\files-1.1\support-compat-28.0.0.aar\d38228c324526c7643ea5990498b4361\AndroidManifest.xml:17:1-24:12
MERGED from [com.android.support:versionedparcelable:28.0.0] C:\Users\Nezamul Islam A R\.gradle\caches\transforms-1\files-1.1\versionedparcelable-28.0.0.aar\d1b92f3b46728526d8d63191ca0b8a13\AndroidManifest.xml:17:1-25:12
MERGED from [com.android.support:cursoradapter:28.0.0] C:\Users\Nezamul Islam A R\.gradle\caches\transforms-1\files-1.1\cursoradapter-28.0.0.aar\9995cfdce5d4391edd0d3e155e345a27\AndroidManifest.xml:17:1-22:12
MERGED from [com.android.support:cardview-v7:28.0.0] C:\Users\Nezamul Islam A R\.gradle\caches\transforms-1\files-1.1\cardview-v7-28.0.0.aar\e5f3e5b1c293b1a40ce98ab037bce7a0\AndroidManifest.xml:17:1-22:12
MERGED from [android.arch.lifecycle:livedata:1.1.1] C:\Users\Nezamul Islam A R\.gradle\caches\transforms-1\files-1.1\livedata-1.1.1.aar\b9f8c1ec61b55e625e45d135b285eaa9\AndroidManifest.xml:17:1-22:12
MERGED from [android.arch.lifecycle:livedata-core:1.1.1] C:\Users\Nezamul Islam A R\.gradle\caches\transforms-1\files-1.1\livedata-core-1.1.1.aar\28dafb943c0c7486a959fef595b22e7d\AndroidManifest.xml:17:1-22:12
MERGED from [android.arch.core:runtime:1.1.1] C:\Users\Nezamul Islam A R\.gradle\caches\transforms-1\files-1.1\runtime-1.1.1.aar\a8520c851cae4081c2c6adcf9258a69e\AndroidManifest.xml:17:1-22:12
MERGED from [android.arch.lifecycle:runtime:1.1.1] C:\Users\Nezamul Islam A R\.gradle\caches\transforms-1\files-1.1\runtime-1.1.1.aar\929ba62de69cf5563fc80352ff0bae99\AndroidManifest.xml:17:1-22:12
MERGED from [com.android.support:documentfile:28.0.0] C:\Users\Nezamul Islam A R\.gradle\caches\transforms-1\files-1.1\documentfile-28.0.0.aar\a25cef491d480f775de4666e3e1db95f\AndroidManifest.xml:17:1-22:12
MERGED from [com.android.support:localbroadcastmanager:28.0.0] C:\Users\Nezamul Islam A R\.gradle\caches\transforms-1\files-1.1\localbroadcastmanager-28.0.0.aar\8a1a2ea8c6ed8cf9b6ef2855b8e4a3dc\AndroidManifest.xml:17:1-22:12
MERGED from [com.android.support:print:28.0.0] C:\Users\Nezamul Islam A R\.gradle\caches\transforms-1\files-1.1\print-28.0.0.aar\767c7e5defba5ee3ea9c58a5b8b42b46\AndroidManifest.xml:17:1-22:12
MERGED from [android.arch.lifecycle:viewmodel:1.1.1] C:\Users\Nezamul Islam A R\.gradle\caches\transforms-1\files-1.1\viewmodel-1.1.1.aar\b55a3b0b9c21ef80e37d6d1fcafb4f62\AndroidManifest.xml:17:1-22:12
MERGED from [com.android.support:interpolator:28.0.0] C:\Users\Nezamul Islam A R\.gradle\caches\transforms-1\files-1.1\interpolator-28.0.0.aar\aa7f968e674795b6515ceca2e38f0250\AndroidManifest.xml:17:1-22:12
INJECTED from F:\New folder\PickandDrop\app\src\main\AndroidManifest.xml:2:1-64:12
INJECTED from F:\New folder\PickandDrop\app\src\main\AndroidManifest.xml:2:1-64:12
INJECTED from F:\New folder\PickandDrop\app\src\main\AndroidManifest.xml:2:1-64:12
	package
		ADDED from F:\New folder\PickandDrop\app\src\main\AndroidManifest.xml:3:5-46
		INJECTED from F:\New folder\PickandDrop\app\src\main\AndroidManifest.xml
		INJECTED from F:\New folder\PickandDrop\app\src\main\AndroidManifest.xml
	android:versionName
		INJECTED from F:\New folder\PickandDrop\app\src\main\AndroidManifest.xml
		ADDED from F:\New folder\PickandDrop\app\src\main\AndroidManifest.xml:2:1-64:12
		INJECTED from F:\New folder\PickandDrop\app\src\main\AndroidManifest.xml
	android:versionCode
		INJECTED from F:\New folder\PickandDrop\app\src\main\AndroidManifest.xml
		ADDED from F:\New folder\PickandDrop\app\src\main\AndroidManifest.xml:2:1-64:12
		INJECTED from F:\New folder\PickandDrop\app\src\main\AndroidManifest.xml
	xmlns:android
		ADDED from F:\New folder\PickandDrop\app\src\main\AndroidManifest.xml:2:11-69
uses-permission#android.permission.ACCESS_FINE_LOCATION
ADDED from F:\New folder\PickandDrop\app\src\main\AndroidManifest.xml:9:5-79
	android:name
		ADDED from F:\New folder\PickandDrop\app\src\main\AndroidManifest.xml:9:22-76
uses-permission#android.permission.INTERNET
ADDED from F:\New folder\PickandDrop\app\src\main\AndroidManifest.xml:10:5-67
MERGED from [com.google.firebase:firebase-database:16.0.3] C:\Users\Nezamul Islam A R\.gradle\caches\transforms-1\files-1.1\firebase-database-16.0.3.aar\befaebdf03420041e94f9c5b1a96a4b3\AndroidManifest.xml:23:5-67
MERGED from [com.google.firebase:firebase-database:16.0.3] C:\Users\Nezamul Islam A R\.gradle\caches\transforms-1\files-1.1\firebase-database-16.0.3.aar\befaebdf03420041e94f9c5b1a96a4b3\AndroidManifest.xml:23:5-67
MERGED from [com.google.android.gms:play-services-maps:16.0.0] C:\Users\Nezamul Islam A R\.gradle\caches\transforms-1\files-1.1\play-services-maps-16.0.0.aar\b800ef65f892be8e822ef31d1d6a55d1\AndroidManifest.xml:24:5-67
MERGED from [com.google.android.gms:play-services-maps:16.0.0] C:\Users\Nezamul Islam A R\.gradle\caches\transforms-1\files-1.1\play-services-maps-16.0.0.aar\b800ef65f892be8e822ef31d1d6a55d1\AndroidManifest.xml:24:5-67
MERGED from [com.google.firebase:firebase-measurement-connector-impl:17.0.5] C:\Users\Nezamul Islam A R\.gradle\caches\transforms-1\files-1.1\firebase-measurement-connector-impl-17.0.5.aar\f6453ba96c8272557e95e171e0eaed32\AndroidManifest.xml:22:5-67
MERGED from [com.google.firebase:firebase-measurement-connector-impl:17.0.5] C:\Users\Nezamul Islam A R\.gradle\caches\transforms-1\files-1.1\firebase-measurement-connector-impl-17.0.5.aar\f6453ba96c8272557e95e171e0eaed32\AndroidManifest.xml:22:5-67
MERGED from [com.google.firebase:firebase-analytics:16.3.0] C:\Users\Nezamul Islam A R\.gradle\caches\transforms-1\files-1.1\firebase-analytics-16.3.0.aar\b388fcc95f72c9013798a41787e6dbe9\AndroidManifest.xml:23:5-67
MERGED from [com.google.firebase:firebase-analytics:16.3.0] C:\Users\Nezamul Islam A R\.gradle\caches\transforms-1\files-1.1\firebase-analytics-16.3.0.aar\b388fcc95f72c9013798a41787e6dbe9\AndroidManifest.xml:23:5-67
MERGED from [com.google.firebase:firebase-analytics-impl:16.3.0] C:\Users\Nezamul Islam A R\.gradle\caches\transforms-1\files-1.1\firebase-analytics-impl-16.3.0.aar\bf56a641fc2bcce093f6fe289463a5e8\AndroidManifest.xml:23:5-67
MERGED from [com.google.firebase:firebase-analytics-impl:16.3.0] C:\Users\Nezamul Islam A R\.gradle\caches\transforms-1\files-1.1\firebase-analytics-impl-16.3.0.aar\bf56a641fc2bcce093f6fe289463a5e8\AndroidManifest.xml:23:5-67
MERGED from [com.google.firebase:firebase-iid:17.0.3] C:\Users\Nezamul Islam A R\.gradle\caches\transforms-1\files-1.1\firebase-iid-17.0.3.aar\d85e6fbd56ae18b452d55f4ff896b738\AndroidManifest.xml:23:5-67
MERGED from [com.google.firebase:firebase-iid:17.0.3] C:\Users\Nezamul Islam A R\.gradle\caches\transforms-1\files-1.1\firebase-iid-17.0.3.aar\d85e6fbd56ae18b452d55f4ff896b738\AndroidManifest.xml:23:5-67
	android:name
		ADDED from F:\New folder\PickandDrop\app\src\main\AndroidManifest.xml:10:22-64
uses-permission#android.permission.ACCESS_WIFI_STATE
ADDED from F:\New folder\PickandDrop\app\src\main\AndroidManifest.xml:11:5-76
	android:name
		ADDED from F:\New folder\PickandDrop\app\src\main\AndroidManifest.xml:11:22-73
uses-permission#android.permission.ACCESS_NETWORK_STATE
ADDED from F:\New folder\PickandDrop\app\src\main\AndroidManifest.xml:12:5-79
MERGED from [com.google.firebase:firebase-database:16.0.3] C:\Users\Nezamul Islam A R\.gradle\caches\transforms-1\files-1.1\firebase-database-16.0.3.aar\befaebdf03420041e94f9c5b1a96a4b3\AndroidManifest.xml:22:5-79
MERGED from [com.google.firebase:firebase-database:16.0.3] C:\Users\Nezamul Islam A R\.gradle\caches\transforms-1\files-1.1\firebase-database-16.0.3.aar\befaebdf03420041e94f9c5b1a96a4b3\AndroidManifest.xml:22:5-79
MERGED from [com.google.android.gms:play-services-maps:16.0.0] C:\Users\Nezamul Islam A R\.gradle\caches\transforms-1\files-1.1\play-services-maps-16.0.0.aar\b800ef65f892be8e822ef31d1d6a55d1\AndroidManifest.xml:23:5-79
MERGED from [com.google.android.gms:play-services-maps:16.0.0] C:\Users\Nezamul Islam A R\.gradle\caches\transforms-1\files-1.1\play-services-maps-16.0.0.aar\b800ef65f892be8e822ef31d1d6a55d1\AndroidManifest.xml:23:5-79
MERGED from [com.google.firebase:firebase-measurement-connector-impl:17.0.5] C:\Users\Nezamul Islam A R\.gradle\caches\transforms-1\files-1.1\firebase-measurement-connector-impl-17.0.5.aar\f6453ba96c8272557e95e171e0eaed32\AndroidManifest.xml:23:5-79
MERGED from [com.google.firebase:firebase-measurement-connector-impl:17.0.5] C:\Users\Nezamul Islam A R\.gradle\caches\transforms-1\files-1.1\firebase-measurement-connector-impl-17.0.5.aar\f6453ba96c8272557e95e171e0eaed32\AndroidManifest.xml:23:5-79
MERGED from [com.google.firebase:firebase-analytics:16.3.0] C:\Users\Nezamul Islam A R\.gradle\caches\transforms-1\files-1.1\firebase-analytics-16.3.0.aar\b388fcc95f72c9013798a41787e6dbe9\AndroidManifest.xml:24:5-79
MERGED from [com.google.firebase:firebase-analytics:16.3.0] C:\Users\Nezamul Islam A R\.gradle\caches\transforms-1\files-1.1\firebase-analytics-16.3.0.aar\b388fcc95f72c9013798a41787e6dbe9\AndroidManifest.xml:24:5-79
MERGED from [com.google.firebase:firebase-analytics-impl:16.3.0] C:\Users\Nezamul Islam A R\.gradle\caches\transforms-1\files-1.1\firebase-analytics-impl-16.3.0.aar\bf56a641fc2bcce093f6fe289463a5e8\AndroidManifest.xml:24:5-79
MERGED from [com.google.firebase:firebase-analytics-impl:16.3.0] C:\Users\Nezamul Islam A R\.gradle\caches\transforms-1\files-1.1\firebase-analytics-impl-16.3.0.aar\bf56a641fc2bcce093f6fe289463a5e8\AndroidManifest.xml:24:5-79
MERGED from [com.google.firebase:firebase-iid:17.0.3] C:\Users\Nezamul Islam A R\.gradle\caches\transforms-1\files-1.1\firebase-iid-17.0.3.aar\d85e6fbd56ae18b452d55f4ff896b738\AndroidManifest.xml:22:5-79
MERGED from [com.google.firebase:firebase-iid:17.0.3] C:\Users\Nezamul Islam A R\.gradle\caches\transforms-1\files-1.1\firebase-iid-17.0.3.aar\d85e6fbd56ae18b452d55f4ff896b738\AndroidManifest.xml:22:5-79
	android:name
		ADDED from F:\New folder\PickandDrop\app\src\main\AndroidManifest.xml:12:22-76
uses-permission#android.permission.ACCESS_COARSE_LOCATION
ADDED from F:\New folder\PickandDrop\app\src\main\AndroidManifest.xml:13:5-81
	android:name
		ADDED from F:\New folder\PickandDrop\app\src\main\AndroidManifest.xml:13:22-78
uses-permission#android.permission.WRITE_EXTERNAL_STORAGE
ADDED from F:\New folder\PickandDrop\app\src\main\AndroidManifest.xml:14:5-81
	android:name
		ADDED from F:\New folder\PickandDrop\app\src\main\AndroidManifest.xml:14:22-78
uses-permission#android.permission.CALL_PHONE
ADDED from F:\New folder\PickandDrop\app\src\main\AndroidManifest.xml:15:5-69
	android:name
		ADDED from F:\New folder\PickandDrop\app\src\main\AndroidManifest.xml:15:22-66
application
ADDED from F:\New folder\PickandDrop\app\src\main\AndroidManifest.xml:17:5-62:19
MERGED from [com.android.support:design:28.0.0] C:\Users\Nezamul Islam A R\.gradle\caches\transforms-1\files-1.1\design-28.0.0.aar\06f55c7d9e71eedb2b5d87c6ae6e91c0\AndroidManifest.xml:22:5-20
MERGED from [com.android.support:design:28.0.0] C:\Users\Nezamul Islam A R\.gradle\caches\transforms-1\files-1.1\design-28.0.0.aar\06f55c7d9e71eedb2b5d87c6ae6e91c0\AndroidManifest.xml:22:5-20
MERGED from [com.android.support.constraint:constraint-layout:1.1.3] C:\Users\Nezamul Islam A R\.gradle\caches\transforms-1\files-1.1\constraint-layout-1.1.3.aar\eb2d7f7d3f52fa6455ee139ce5e07837\AndroidManifest.xml:9:5-20
MERGED from [com.android.support.constraint:constraint-layout:1.1.3] C:\Users\Nezamul Islam A R\.gradle\caches\transforms-1\files-1.1\constraint-layout-1.1.3.aar\eb2d7f7d3f52fa6455ee139ce5e07837\AndroidManifest.xml:9:5-20
MERGED from [com.google.firebase:firebase-core:16.0.7] C:\Users\Nezamul Islam A R\.gradle\caches\transforms-1\files-1.1\firebase-core-16.0.7.aar\8b42f7fdd8d9c74d5041d59f9501138a\AndroidManifest.xml:7:5-20
MERGED from [com.google.firebase:firebase-core:16.0.7] C:\Users\Nezamul Islam A R\.gradle\caches\transforms-1\files-1.1\firebase-core-16.0.7.aar\8b42f7fdd8d9c74d5041d59f9501138a\AndroidManifest.xml:7:5-20
MERGED from [com.google.android.gms:play-services-location:16.0.0] C:\Users\Nezamul Islam A R\.gradle\caches\transforms-1\files-1.1\play-services-location-16.0.0.aar\53f34029f1799046da4625434dbf33e1\AndroidManifest.xml:7:5-20
MERGED from [com.google.android.gms:play-services-location:16.0.0] C:\Users\Nezamul Islam A R\.gradle\caches\transforms-1\files-1.1\play-services-location-16.0.0.aar\53f34029f1799046da4625434dbf33e1\AndroidManifest.xml:7:5-20
MERGED from [com.google.android.gms:play-services-maps:16.0.0] C:\Users\Nezamul Islam A R\.gradle\caches\transforms-1\files-1.1\play-services-maps-16.0.0.aar\b800ef65f892be8e822ef31d1d6a55d1\AndroidManifest.xml:30:5-20
MERGED from [com.google.android.gms:play-services-maps:16.0.0] C:\Users\Nezamul Islam A R\.gradle\caches\transforms-1\files-1.1\play-services-maps-16.0.0.aar\b800ef65f892be8e822ef31d1d6a55d1\AndroidManifest.xml:30:5-20
MERGED from [com.google.firebase:firebase-measurement-connector-impl:17.0.5] C:\Users\Nezamul Islam A R\.gradle\caches\transforms-1\files-1.1\firebase-measurement-connector-impl-17.0.5.aar\f6453ba96c8272557e95e171e0eaed32\AndroidManifest.xml:26:5-32:19
MERGED from [com.google.firebase:firebase-measurement-connector-impl:17.0.5] C:\Users\Nezamul Islam A R\.gradle\caches\transforms-1\files-1.1\firebase-measurement-connector-impl-17.0.5.aar\f6453ba96c8272557e95e171e0eaed32\AndroidManifest.xml:26:5-32:19
MERGED from [com.google.firebase:firebase-analytics:16.3.0] C:\Users\Nezamul Islam A R\.gradle\caches\transforms-1\files-1.1\firebase-analytics-16.3.0.aar\b388fcc95f72c9013798a41787e6dbe9\AndroidManifest.xml:28:5-53:19
MERGED from [com.google.firebase:firebase-analytics:16.3.0] C:\Users\Nezamul Islam A R\.gradle\caches\transforms-1\files-1.1\firebase-analytics-16.3.0.aar\b388fcc95f72c9013798a41787e6dbe9\AndroidManifest.xml:28:5-53:19
MERGED from [com.google.android.gms:play-services-measurement-api:16.3.0] C:\Users\Nezamul Islam A R\.gradle\caches\transforms-1\files-1.1\play-services-measurement-api-16.3.0.aar\30d0146701815e2766f703e3f1ac475a\AndroidManifest.xml:22:5-23:19
MERGED from [com.google.android.gms:play-services-measurement-api:16.3.0] C:\Users\Nezamul Islam A R\.gradle\caches\transforms-1\files-1.1\play-services-measurement-api-16.3.0.aar\30d0146701815e2766f703e3f1ac475a\AndroidManifest.xml:22:5-23:19
MERGED from [com.google.firebase:firebase-analytics-impl:16.3.0] C:\Users\Nezamul Islam A R\.gradle\caches\transforms-1\files-1.1\firebase-analytics-impl-16.3.0.aar\bf56a641fc2bcce093f6fe289463a5e8\AndroidManifest.xml:28:5-38:19
MERGED from [com.google.firebase:firebase-analytics-impl:16.3.0] C:\Users\Nezamul Islam A R\.gradle\caches\transforms-1\files-1.1\firebase-analytics-impl-16.3.0.aar\bf56a641fc2bcce093f6fe289463a5e8\AndroidManifest.xml:28:5-38:19
MERGED from [com.google.firebase:firebase-iid:17.0.3] C:\Users\Nezamul Islam A R\.gradle\caches\transforms-1\files-1.1\firebase-iid-17.0.3.aar\d85e6fbd56ae18b452d55f4ff896b738\AndroidManifest.xml:28:5-57:19
MERGED from [com.google.firebase:firebase-iid:17.0.3] C:\Users\Nezamul Islam A R\.gradle\caches\transforms-1\files-1.1\firebase-iid-17.0.3.aar\d85e6fbd56ae18b452d55f4ff896b738\AndroidManifest.xml:28:5-57:19
MERGED from [com.google.firebase:firebase-iid-interop:16.0.1] C:\Users\Nezamul Islam A R\.gradle\caches\transforms-1\files-1.1\firebase-iid-interop-16.0.1.aar\b659ea158fa3e52c72507a5bc954e01f\AndroidManifest.xml:7:5-8:19
MERGED from [com.google.firebase:firebase-iid-interop:16.0.1] C:\Users\Nezamul Islam A R\.gradle\caches\transforms-1\files-1.1\firebase-iid-interop-16.0.1.aar\b659ea158fa3e52c72507a5bc954e01f\AndroidManifest.xml:7:5-8:19
MERGED from [com.google.android.gms:play-services-base:16.0.1] C:\Users\Nezamul Islam A R\.gradle\caches\transforms-1\files-1.1\play-services-base-16.0.1.aar\d05afb522c487187c3a5dccdfa82015b\AndroidManifest.xml:22:5-27:19
MERGED from [com.google.android.gms:play-services-base:16.0.1] C:\Users\Nezamul Islam A R\.gradle\caches\transforms-1\files-1.1\play-services-base-16.0.1.aar\d05afb522c487187c3a5dccdfa82015b\AndroidManifest.xml:22:5-27:19
MERGED from [com.google.firebase:firebase-common:16.0.3] C:\Users\Nezamul Islam A R\.gradle\caches\transforms-1\files-1.1\firebase-common-16.0.3.aar\4f2d0e282b536472ae01116e450a2719\AndroidManifest.xml:9:5-15:19
MERGED from [com.google.firebase:firebase-common:16.0.3] C:\Users\Nezamul Islam A R\.gradle\caches\transforms-1\files-1.1\firebase-common-16.0.3.aar\4f2d0e282b536472ae01116e450a2719\AndroidManifest.xml:9:5-15:19
MERGED from [com.google.android.gms:play-services-tasks:16.0.1] C:\Users\Nezamul Islam A R\.gradle\caches\transforms-1\files-1.1\play-services-tasks-16.0.1.aar\99762186ec3fa04ef1bf0bae31cdf45d\AndroidManifest.xml:7:5-20
MERGED from [com.google.android.gms:play-services-tasks:16.0.1] C:\Users\Nezamul Islam A R\.gradle\caches\transforms-1\files-1.1\play-services-tasks-16.0.1.aar\99762186ec3fa04ef1bf0bae31cdf45d\AndroidManifest.xml:7:5-20
MERGED from [com.google.android.gms:play-services-places-placereport:16.0.0] C:\Users\Nezamul Islam A R\.gradle\caches\transforms-1\files-1.1\play-services-places-placereport-16.0.0.aar\c2a328380fd8cd53a356f09bd4fdd83c\AndroidManifest.xml:22:5-20
MERGED from [com.google.android.gms:play-services-places-placereport:16.0.0] C:\Users\Nezamul Islam A R\.gradle\caches\transforms-1\files-1.1\play-services-places-placereport-16.0.0.aar\c2a328380fd8cd53a356f09bd4fdd83c\AndroidManifest.xml:22:5-20
MERGED from [com.google.android.gms:play-services-measurement-base:16.3.0] C:\Users\Nezamul Islam A R\.gradle\caches\transforms-1\files-1.1\play-services-measurement-base-16.3.0.aar\1fba1f36844216b5a6da6d3d7730dd25\AndroidManifest.xml:7:5-20
MERGED from [com.google.android.gms:play-services-measurement-base:16.3.0] C:\Users\Nezamul Islam A R\.gradle\caches\transforms-1\files-1.1\play-services-measurement-base-16.3.0.aar\1fba1f36844216b5a6da6d3d7730dd25\AndroidManifest.xml:7:5-20
MERGED from [com.google.android.gms:play-services-stats:16.0.1] C:\Users\Nezamul Islam A R\.gradle\caches\transforms-1\files-1.1\play-services-stats-16.0.1.aar\cb982706f9b7931fabd6773f9fe1d286\AndroidManifest.xml:7:5-20
MERGED from [com.google.android.gms:play-services-stats:16.0.1] C:\Users\Nezamul Islam A R\.gradle\caches\transforms-1\files-1.1\play-services-stats-16.0.1.aar\cb982706f9b7931fabd6773f9fe1d286\AndroidManifest.xml:7:5-20
MERGED from [com.google.firebase:firebase-measurement-connector:17.0.1] C:\Users\Nezamul Islam A R\.gradle\caches\transforms-1\files-1.1\firebase-measurement-connector-17.0.1.aar\f9096331b545e39e21798d3240e199bb\AndroidManifest.xml:22:5-23:19
MERGED from [com.google.firebase:firebase-measurement-connector:17.0.1] C:\Users\Nezamul Islam A R\.gradle\caches\transforms-1\files-1.1\firebase-measurement-connector-17.0.1.aar\f9096331b545e39e21798d3240e199bb\AndroidManifest.xml:22:5-23:19
MERGED from [com.google.android.gms:play-services-ads-identifier:16.0.0] C:\Users\Nezamul Islam A R\.gradle\caches\transforms-1\files-1.1\play-services-ads-identifier-16.0.0.aar\a67a6cd635dc47a7308fe4c8a0f24d58\AndroidManifest.xml:22:5-20
MERGED from [com.google.android.gms:play-services-ads-identifier:16.0.0] C:\Users\Nezamul Islam A R\.gradle\caches\transforms-1\files-1.1\play-services-ads-identifier-16.0.0.aar\a67a6cd635dc47a7308fe4c8a0f24d58\AndroidManifest.xml:22:5-20
MERGED from [com.google.android.gms:play-services-basement:16.0.1] C:\Users\Nezamul Islam A R\.gradle\caches\transforms-1\files-1.1\play-services-basement-16.0.1.aar\ff510168ec72f5182c358422ee98c67b\AndroidManifest.xml:22:5-26:19
MERGED from [com.google.android.gms:play-services-basement:16.0.1] C:\Users\Nezamul Islam A R\.gradle\caches\transforms-1\files-1.1\play-services-basement-16.0.1.aar\ff510168ec72f5182c358422ee98c67b\AndroidManifest.xml:22:5-26:19
MERGED from [com.android.support:support-v4:26.1.0] C:\Users\Nezamul Islam A R\.gradle\caches\transforms-1\files-1.1\support-v4-26.1.0.aar\f580f90daf9ba18c1b44691113b937e0\AndroidManifest.xml:25:5-29:19
MERGED from [com.android.support:support-v4:26.1.0] C:\Users\Nezamul Islam A R\.gradle\caches\transforms-1\files-1.1\support-v4-26.1.0.aar\f580f90daf9ba18c1b44691113b937e0\AndroidManifest.xml:25:5-29:19
MERGED from [com.android.support:support-media-compat:26.1.0] C:\Users\Nezamul Islam A R\.gradle\caches\transforms-1\files-1.1\support-media-compat-26.1.0.aar\60d85b47be71b438666719ee1c869528\AndroidManifest.xml:25:5-29:19
MERGED from [com.android.support:support-media-compat:26.1.0] C:\Users\Nezamul Islam A R\.gradle\caches\transforms-1\files-1.1\support-media-compat-26.1.0.aar\60d85b47be71b438666719ee1c869528\AndroidManifest.xml:25:5-29:19
MERGED from [com.android.support:support-compat:28.0.0] C:\Users\Nezamul Islam A R\.gradle\caches\transforms-1\files-1.1\support-compat-28.0.0.aar\d38228c324526c7643ea5990498b4361\AndroidManifest.xml:22:5-94
MERGED from [com.android.support:support-compat:28.0.0] C:\Users\Nezamul Islam A R\.gradle\caches\transforms-1\files-1.1\support-compat-28.0.0.aar\d38228c324526c7643ea5990498b4361\AndroidManifest.xml:22:5-94
MERGED from [com.android.support:versionedparcelable:28.0.0] C:\Users\Nezamul Islam A R\.gradle\caches\transforms-1\files-1.1\versionedparcelable-28.0.0.aar\d1b92f3b46728526d8d63191ca0b8a13\AndroidManifest.xml:22:5-23:19
MERGED from [com.android.support:versionedparcelable:28.0.0] C:\Users\Nezamul Islam A R\.gradle\caches\transforms-1\files-1.1\versionedparcelable-28.0.0.aar\d1b92f3b46728526d8d63191ca0b8a13\AndroidManifest.xml:22:5-23:19
	android:appComponentFactory
		ADDED from [com.android.support:support-compat:28.0.0] C:\Users\Nezamul Islam A R\.gradle\caches\transforms-1\files-1.1\support-compat-28.0.0.aar\d38228c324526c7643ea5990498b4361\AndroidManifest.xml:22:18-91
	android:supportsRtl
		ADDED from F:\New folder\PickandDrop\app\src\main\AndroidManifest.xml:22:9-35
	android:label
		ADDED from F:\New folder\PickandDrop\app\src\main\AndroidManifest.xml:20:9-41
	android:roundIcon
		ADDED from F:\New folder\PickandDrop\app\src\main\AndroidManifest.xml:21:9-44
	android:icon
		ADDED from F:\New folder\PickandDrop\app\src\main\AndroidManifest.xml:19:9-39
	android:allowBackup
		ADDED from F:\New folder\PickandDrop\app\src\main\AndroidManifest.xml:18:9-35
	android:theme
		ADDED from F:\New folder\PickandDrop\app\src\main\AndroidManifest.xml:23:9-40
activity#com.avis.avistechbd.pickanddrop.Activities.AllPassengersList
ADDED from F:\New folder\PickandDrop\app\src\main\AndroidManifest.xml:24:9-75
	android:name
		ADDED from F:\New folder\PickandDrop\app\src\main\AndroidManifest.xml:24:19-63
activity#com.avis.avistechbd.pickanddrop.Activities.ActivePassengerList
ADDED from F:\New folder\PickandDrop\app\src\main\AndroidManifest.xml:25:9-68
	android:name
		ADDED from F:\New folder\PickandDrop\app\src\main\AndroidManifest.xml:25:19-65
activity#com.avis.avistechbd.pickanddrop.Activities.SetPickStatus
ADDED from F:\New folder\PickandDrop\app\src\main\AndroidManifest.xml:26:9-62
	android:name
		ADDED from F:\New folder\PickandDrop\app\src\main\AndroidManifest.xml:26:19-59
activity#com.avis.avistechbd.pickanddrop.Activities.SetNewPickPoint
ADDED from F:\New folder\PickandDrop\app\src\main\AndroidManifest.xml:27:9-64
	android:name
		ADDED from F:\New folder\PickandDrop\app\src\main\AndroidManifest.xml:27:19-61
meta-data#com.google.android.geo.API_KEY
ADDED from F:\New folder\PickandDrop\app\src\main\AndroidManifest.xml:36:9-38:55
	android:value
		ADDED from F:\New folder\PickandDrop\app\src\main\AndroidManifest.xml:38:13-52
	android:name
		ADDED from F:\New folder\PickandDrop\app\src\main\AndroidManifest.xml:37:13-58
activity#com.avis.avistechbd.pickanddrop.Activities.PickUpMap
ADDED from F:\New folder\PickandDrop\app\src\main\AndroidManifest.xml:40:9-43:52
	android:screenOrientation
		ADDED from F:\New folder\PickandDrop\app\src\main\AndroidManifest.xml:43:13-49
	android:label
		ADDED from F:\New folder\PickandDrop\app\src\main\AndroidManifest.xml:42:13-63
	android:name
		ADDED from F:\New folder\PickandDrop\app\src\main\AndroidManifest.xml:41:13-49
activity#com.avis.avistechbd.pickanddrop.Activities.MapDrawer
ADDED from F:\New folder\PickandDrop\app\src\main\AndroidManifest.xml:44:9-48:59
	android:screenOrientation
		ADDED from F:\New folder\PickandDrop\app\src\main\AndroidManifest.xml:47:13-49
	android:label
		ADDED from F:\New folder\PickandDrop\app\src\main\AndroidManifest.xml:46:13-62
	android:theme
		ADDED from F:\New folder\PickandDrop\app\src\main\AndroidManifest.xml:48:13-56
	android:name
		ADDED from F:\New folder\PickandDrop\app\src\main\AndroidManifest.xml:45:13-49
activity#com.avis.avistechbd.pickanddrop.Activities.BestSplashTheme
ADDED from F:\New folder\PickandDrop\app\src\main\AndroidManifest.xml:49:9-58:20
	android:screenOrientation
		ADDED from F:\New folder\PickandDrop\app\src\main\AndroidManifest.xml:51:13-49
	android:theme
		ADDED from F:\New folder\PickandDrop\app\src\main\AndroidManifest.xml:52:13-53
	android:name
		ADDED from F:\New folder\PickandDrop\app\src\main\AndroidManifest.xml:50:13-55
intent-filter#action:name:android.intent.action.MAIN+category:name:android.intent.category.LAUNCHER
ADDED from F:\New folder\PickandDrop\app\src\main\AndroidManifest.xml:53:13-57:29
action#android.intent.action.MAIN
ADDED from F:\New folder\PickandDrop\app\src\main\AndroidManifest.xml:54:17-69
	android:name
		ADDED from F:\New folder\PickandDrop\app\src\main\AndroidManifest.xml:54:25-66
category#android.intent.category.LAUNCHER
ADDED from F:\New folder\PickandDrop\app\src\main\AndroidManifest.xml:56:17-77
	android:name
		ADDED from F:\New folder\PickandDrop\app\src\main\AndroidManifest.xml:56:27-74
activity#com.avis.avistechbd.pickanddrop.Activities.MainActivity
ADDED from F:\New folder\PickandDrop\app\src\main\AndroidManifest.xml:59:9-61:52
	android:screenOrientation
		ADDED from F:\New folder\PickandDrop\app\src\main\AndroidManifest.xml:61:13-49
	android:name
		ADDED from F:\New folder\PickandDrop\app\src\main\AndroidManifest.xml:60:13-52
uses-sdk
INJECTED from F:\New folder\PickandDrop\app\src\main\AndroidManifest.xml reason: use-sdk injection requested
INJECTED from F:\New folder\PickandDrop\app\src\main\AndroidManifest.xml
INJECTED from F:\New folder\PickandDrop\app\src\main\AndroidManifest.xml
MERGED from [com.android.support:design:28.0.0] C:\Users\Nezamul Islam A R\.gradle\caches\transforms-1\files-1.1\design-28.0.0.aar\06f55c7d9e71eedb2b5d87c6ae6e91c0\AndroidManifest.xml:20:5-44
MERGED from [com.android.support:design:28.0.0] C:\Users\Nezamul Islam A R\.gradle\caches\transforms-1\files-1.1\design-28.0.0.aar\06f55c7d9e71eedb2b5d87c6ae6e91c0\AndroidManifest.xml:20:5-44
MERGED from [com.android.support:appcompat-v7:28.0.0] C:\Users\Nezamul Islam A R\.gradle\caches\transforms-1\files-1.1\appcompat-v7-28.0.0.aar\12af6fbe64f2aa26b08a3df6afc47758\AndroidManifest.xml:20:5-44
MERGED from [com.android.support:appcompat-v7:28.0.0] C:\Users\Nezamul Islam A R\.gradle\caches\transforms-1\files-1.1\appcompat-v7-28.0.0.aar\12af6fbe64f2aa26b08a3df6afc47758\AndroidManifest.xml:20:5-44
MERGED from [com.android.support.constraint:constraint-layout:1.1.3] C:\Users\Nezamul Islam A R\.gradle\caches\transforms-1\files-1.1\constraint-layout-1.1.3.aar\eb2d7f7d3f52fa6455ee139ce5e07837\AndroidManifest.xml:5:5-7:41
MERGED from [com.android.support.constraint:constraint-layout:1.1.3] C:\Users\Nezamul Islam A R\.gradle\caches\transforms-1\files-1.1\constraint-layout-1.1.3.aar\eb2d7f7d3f52fa6455ee139ce5e07837\AndroidManifest.xml:5:5-7:41
MERGED from [com.jakewharton:butterknife:8.8.1] C:\Users\Nezamul Islam A R\.gradle\caches\transforms-1\files-1.1\butterknife-8.8.1.aar\7670948eb0aba83b1e79f24d42aa1587\AndroidManifest.xml:5:5-43
MERGED from [com.jakewharton:butterknife:8.8.1] C:\Users\Nezamul Islam A R\.gradle\caches\transforms-1\files-1.1\butterknife-8.8.1.aar\7670948eb0aba83b1e79f24d42aa1587\AndroidManifest.xml:5:5-43
MERGED from [com.google.firebase:firebase-database:16.0.3] C:\Users\Nezamul Islam A R\.gradle\caches\transforms-1\files-1.1\firebase-database-16.0.3.aar\befaebdf03420041e94f9c5b1a96a4b3\AndroidManifest.xml:18:5-20:41
MERGED from [com.google.firebase:firebase-database:16.0.3] C:\Users\Nezamul Islam A R\.gradle\caches\transforms-1\files-1.1\firebase-database-16.0.3.aar\befaebdf03420041e94f9c5b1a96a4b3\AndroidManifest.xml:18:5-20:41
MERGED from [com.google.firebase:firebase-core:16.0.7] C:\Users\Nezamul Islam A R\.gradle\caches\transforms-1\files-1.1\firebase-core-16.0.7.aar\8b42f7fdd8d9c74d5041d59f9501138a\AndroidManifest.xml:5:5-44
MERGED from [com.google.firebase:firebase-core:16.0.7] C:\Users\Nezamul Islam A R\.gradle\caches\transforms-1\files-1.1\firebase-core-16.0.7.aar\8b42f7fdd8d9c74d5041d59f9501138a\AndroidManifest.xml:5:5-44
MERGED from [com.google.android.gms:play-services-location:16.0.0] C:\Users\Nezamul Islam A R\.gradle\caches\transforms-1\files-1.1\play-services-location-16.0.0.aar\53f34029f1799046da4625434dbf33e1\AndroidManifest.xml:5:5-44
MERGED from [com.google.android.gms:play-services-location:16.0.0] C:\Users\Nezamul Islam A R\.gradle\caches\transforms-1\files-1.1\play-services-location-16.0.0.aar\53f34029f1799046da4625434dbf33e1\AndroidManifest.xml:5:5-44
MERGED from [com.google.android.gms:play-services-maps:16.0.0] C:\Users\Nezamul Islam A R\.gradle\caches\transforms-1\files-1.1\play-services-maps-16.0.0.aar\b800ef65f892be8e822ef31d1d6a55d1\AndroidManifest.xml:20:5-44
MERGED from [com.google.android.gms:play-services-maps:16.0.0] C:\Users\Nezamul Islam A R\.gradle\caches\transforms-1\files-1.1\play-services-maps-16.0.0.aar\b800ef65f892be8e822ef31d1d6a55d1\AndroidManifest.xml:20:5-44
MERGED from [com.google.firebase:firebase-measurement-connector-impl:17.0.5] C:\Users\Nezamul Islam A R\.gradle\caches\transforms-1\files-1.1\firebase-measurement-connector-impl-17.0.5.aar\f6453ba96c8272557e95e171e0eaed32\AndroidManifest.xml:20:5-44
MERGED from [com.google.firebase:firebase-measurement-connector-impl:17.0.5] C:\Users\Nezamul Islam A R\.gradle\caches\transforms-1\files-1.1\firebase-measurement-connector-impl-17.0.5.aar\f6453ba96c8272557e95e171e0eaed32\AndroidManifest.xml:20:5-44
MERGED from [com.google.firebase:firebase-analytics:16.3.0] C:\Users\Nezamul Islam A R\.gradle\caches\transforms-1\files-1.1\firebase-analytics-16.3.0.aar\b388fcc95f72c9013798a41787e6dbe9\AndroidManifest.xml:20:5-44
MERGED from [com.google.firebase:firebase-analytics:16.3.0] C:\Users\Nezamul Islam A R\.gradle\caches\transforms-1\files-1.1\firebase-analytics-16.3.0.aar\b388fcc95f72c9013798a41787e6dbe9\AndroidManifest.xml:20:5-44
MERGED from [com.google.android.gms:play-services-measurement-api:16.3.0] C:\Users\Nezamul Islam A R\.gradle\caches\transforms-1\files-1.1\play-services-measurement-api-16.3.0.aar\30d0146701815e2766f703e3f1ac475a\AndroidManifest.xml:20:5-44
MERGED from [com.google.android.gms:play-services-measurement-api:16.3.0] C:\Users\Nezamul Islam A R\.gradle\caches\transforms-1\files-1.1\play-services-measurement-api-16.3.0.aar\30d0146701815e2766f703e3f1ac475a\AndroidManifest.xml:20:5-44
MERGED from [com.google.firebase:firebase-analytics-impl:16.3.0] C:\Users\Nezamul Islam A R\.gradle\caches\transforms-1\files-1.1\firebase-analytics-impl-16.3.0.aar\bf56a641fc2bcce093f6fe289463a5e8\AndroidManifest.xml:20:5-44
MERGED from [com.google.firebase:firebase-analytics-impl:16.3.0] C:\Users\Nezamul Islam A R\.gradle\caches\transforms-1\files-1.1\firebase-analytics-impl-16.3.0.aar\bf56a641fc2bcce093f6fe289463a5e8\AndroidManifest.xml:20:5-44
MERGED from [com.google.firebase:firebase-iid:17.0.3] C:\Users\Nezamul Islam A R\.gradle\caches\transforms-1\files-1.1\firebase-iid-17.0.3.aar\d85e6fbd56ae18b452d55f4ff896b738\AndroidManifest.xml:20:5-44
MERGED from [com.google.firebase:firebase-iid:17.0.3] C:\Users\Nezamul Islam A R\.gradle\caches\transforms-1\files-1.1\firebase-iid-17.0.3.aar\d85e6fbd56ae18b452d55f4ff896b738\AndroidManifest.xml:20:5-44
MERGED from [com.google.firebase:firebase-iid-interop:16.0.1] C:\Users\Nezamul Islam A R\.gradle\caches\transforms-1\files-1.1\firebase-iid-interop-16.0.1.aar\b659ea158fa3e52c72507a5bc954e01f\AndroidManifest.xml:5:5-44
MERGED from [com.google.firebase:firebase-iid-interop:16.0.1] C:\Users\Nezamul Islam A R\.gradle\caches\transforms-1\files-1.1\firebase-iid-interop-16.0.1.aar\b659ea158fa3e52c72507a5bc954e01f\AndroidManifest.xml:5:5-44
MERGED from [com.google.android.gms:play-services-base:16.0.1] C:\Users\Nezamul Islam A R\.gradle\caches\transforms-1\files-1.1\play-services-base-16.0.1.aar\d05afb522c487187c3a5dccdfa82015b\AndroidManifest.xml:20:5-44
MERGED from [com.google.android.gms:play-services-base:16.0.1] C:\Users\Nezamul Islam A R\.gradle\caches\transforms-1\files-1.1\play-services-base-16.0.1.aar\d05afb522c487187c3a5dccdfa82015b\AndroidManifest.xml:20:5-44
MERGED from [com.google.firebase:firebase-common:16.0.3] C:\Users\Nezamul Islam A R\.gradle\caches\transforms-1\files-1.1\firebase-common-16.0.3.aar\4f2d0e282b536472ae01116e450a2719\AndroidManifest.xml:5:5-7:41
MERGED from [com.google.firebase:firebase-common:16.0.3] C:\Users\Nezamul Islam A R\.gradle\caches\transforms-1\files-1.1\firebase-common-16.0.3.aar\4f2d0e282b536472ae01116e450a2719\AndroidManifest.xml:5:5-7:41
MERGED from [com.google.android.gms:play-services-tasks:16.0.1] C:\Users\Nezamul Islam A R\.gradle\caches\transforms-1\files-1.1\play-services-tasks-16.0.1.aar\99762186ec3fa04ef1bf0bae31cdf45d\AndroidManifest.xml:5:5-44
MERGED from [com.google.android.gms:play-services-tasks:16.0.1] C:\Users\Nezamul Islam A R\.gradle\caches\transforms-1\files-1.1\play-services-tasks-16.0.1.aar\99762186ec3fa04ef1bf0bae31cdf45d\AndroidManifest.xml:5:5-44
MERGED from [com.google.firebase:firebase-database-collection:16.0.0] C:\Users\Nezamul Islam A R\.gradle\caches\transforms-1\files-1.1\firebase-database-collection-16.0.0.aar\5cb786a85b52df404e51b11dbad0f201\AndroidManifest.xml:6:5-44
MERGED from [com.google.firebase:firebase-database-collection:16.0.0] C:\Users\Nezamul Islam A R\.gradle\caches\transforms-1\files-1.1\firebase-database-collection-16.0.0.aar\5cb786a85b52df404e51b11dbad0f201\AndroidManifest.xml:6:5-44
MERGED from [com.google.android.gms:play-services-places-placereport:16.0.0] C:\Users\Nezamul Islam A R\.gradle\caches\transforms-1\files-1.1\play-services-places-placereport-16.0.0.aar\c2a328380fd8cd53a356f09bd4fdd83c\AndroidManifest.xml:20:5-44
MERGED from [com.google.android.gms:play-services-places-placereport:16.0.0] C:\Users\Nezamul Islam A R\.gradle\caches\transforms-1\files-1.1\play-services-places-placereport-16.0.0.aar\c2a328380fd8cd53a356f09bd4fdd83c\AndroidManifest.xml:20:5-44
MERGED from [com.google.android.gms:play-services-measurement-base:16.3.0] C:\Users\Nezamul Islam A R\.gradle\caches\transforms-1\files-1.1\play-services-measurement-base-16.3.0.aar\1fba1f36844216b5a6da6d3d7730dd25\AndroidManifest.xml:5:5-44
MERGED from [com.google.android.gms:play-services-measurement-base:16.3.0] C:\Users\Nezamul Islam A R\.gradle\caches\transforms-1\files-1.1\play-services-measurement-base-16.3.0.aar\1fba1f36844216b5a6da6d3d7730dd25\AndroidManifest.xml:5:5-44
MERGED from [com.google.android.gms:play-services-stats:16.0.1] C:\Users\Nezamul Islam A R\.gradle\caches\transforms-1\files-1.1\play-services-stats-16.0.1.aar\cb982706f9b7931fabd6773f9fe1d286\AndroidManifest.xml:5:5-44
MERGED from [com.google.android.gms:play-services-stats:16.0.1] C:\Users\Nezamul Islam A R\.gradle\caches\transforms-1\files-1.1\play-services-stats-16.0.1.aar\cb982706f9b7931fabd6773f9fe1d286\AndroidManifest.xml:5:5-44
MERGED from [com.google.firebase:firebase-measurement-connector:17.0.1] C:\Users\Nezamul Islam A R\.gradle\caches\transforms-1\files-1.1\firebase-measurement-connector-17.0.1.aar\f9096331b545e39e21798d3240e199bb\AndroidManifest.xml:20:5-44
MERGED from [com.google.firebase:firebase-measurement-connector:17.0.1] C:\Users\Nezamul Islam A R\.gradle\caches\transforms-1\files-1.1\firebase-measurement-connector-17.0.1.aar\f9096331b545e39e21798d3240e199bb\AndroidManifest.xml:20:5-44
MERGED from [com.google.android.gms:play-services-ads-identifier:16.0.0] C:\Users\Nezamul Islam A R\.gradle\caches\transforms-1\files-1.1\play-services-ads-identifier-16.0.0.aar\a67a6cd635dc47a7308fe4c8a0f24d58\AndroidManifest.xml:20:5-44
MERGED from [com.google.android.gms:play-services-ads-identifier:16.0.0] C:\Users\Nezamul Islam A R\.gradle\caches\transforms-1\files-1.1\play-services-ads-identifier-16.0.0.aar\a67a6cd635dc47a7308fe4c8a0f24d58\AndroidManifest.xml:20:5-44
MERGED from [com.google.android.gms:play-services-basement:16.0.1] C:\Users\Nezamul Islam A R\.gradle\caches\transforms-1\files-1.1\play-services-basement-16.0.1.aar\ff510168ec72f5182c358422ee98c67b\AndroidManifest.xml:20:5-44
MERGED from [com.google.android.gms:play-services-basement:16.0.1] C:\Users\Nezamul Islam A R\.gradle\caches\transforms-1\files-1.1\play-services-basement-16.0.1.aar\ff510168ec72f5182c358422ee98c67b\AndroidManifest.xml:20:5-44
MERGED from [com.android.support:support-v4:26.1.0] C:\Users\Nezamul Islam A R\.gradle\caches\transforms-1\files-1.1\support-v4-26.1.0.aar\f580f90daf9ba18c1b44691113b937e0\AndroidManifest.xml:21:5-23:54
MERGED from [com.android.support:support-v4:26.1.0] C:\Users\Nezamul Islam A R\.gradle\caches\transforms-1\files-1.1\support-v4-26.1.0.aar\f580f90daf9ba18c1b44691113b937e0\AndroidManifest.xml:21:5-23:54
MERGED from [com.android.support:support-fragment:28.0.0] C:\Users\Nezamul Islam A R\.gradle\caches\transforms-1\files-1.1\support-fragment-28.0.0.aar\78930a794ca910dfcd94ed2d9714bfe0\AndroidManifest.xml:20:5-44
MERGED from [com.android.support:support-fragment:28.0.0] C:\Users\Nezamul Islam A R\.gradle\caches\transforms-1\files-1.1\support-fragment-28.0.0.aar\78930a794ca910dfcd94ed2d9714bfe0\AndroidManifest.xml:20:5-44
MERGED from [com.android.support:animated-vector-drawable:28.0.0] C:\Users\Nezamul Islam A R\.gradle\caches\transforms-1\files-1.1\animated-vector-drawable-28.0.0.aar\4c4d958a2e99a428b03e74ad8c6957fa\AndroidManifest.xml:20:5-44
MERGED from [com.android.support:animated-vector-drawable:28.0.0] C:\Users\Nezamul Islam A R\.gradle\caches\transforms-1\files-1.1\animated-vector-drawable-28.0.0.aar\4c4d958a2e99a428b03e74ad8c6957fa\AndroidManifest.xml:20:5-44
MERGED from [com.android.support:recyclerview-v7:28.0.0] C:\Users\Nezamul Islam A R\.gradle\caches\transforms-1\files-1.1\recyclerview-v7-28.0.0.aar\5bc7419001de8db83b15a707cd97c521\AndroidManifest.xml:20:5-44
MERGED from [com.android.support:recyclerview-v7:28.0.0] C:\Users\Nezamul Islam A R\.gradle\caches\transforms-1\files-1.1\recyclerview-v7-28.0.0.aar\5bc7419001de8db83b15a707cd97c521\AndroidManifest.xml:20:5-44
MERGED from [com.android.support:support-core-ui:28.0.0] C:\Users\Nezamul Islam A R\.gradle\caches\transforms-1\files-1.1\support-core-ui-28.0.0.aar\7d44091a25e59920f631a59bd2045826\AndroidManifest.xml:20:5-44
MERGED from [com.android.support:support-core-ui:28.0.0] C:\Users\Nezamul Islam A R\.gradle\caches\transforms-1\files-1.1\support-core-ui-28.0.0.aar\7d44091a25e59920f631a59bd2045826\AndroidManifest.xml:20:5-44
MERGED from [com.android.support:support-core-utils:28.0.0] C:\Users\Nezamul Islam A R\.gradle\caches\transforms-1\files-1.1\support-core-utils-28.0.0.aar\185e980ee302aa57a0864c491d09a59e\AndroidManifest.xml:20:5-44
MERGED from [com.android.support:support-core-utils:28.0.0] C:\Users\Nezamul Islam A R\.gradle\caches\transforms-1\files-1.1\support-core-utils-28.0.0.aar\185e980ee302aa57a0864c491d09a59e\AndroidManifest.xml:20:5-44
MERGED from [com.android.support:support-vector-drawable:28.0.0] C:\Users\Nezamul Islam A R\.gradle\caches\transforms-1\files-1.1\support-vector-drawable-28.0.0.aar\b6ae3bcc951ce0091c417b8dff79b6a5\AndroidManifest.xml:20:5-44
MERGED from [com.android.support:support-vector-drawable:28.0.0] C:\Users\Nezamul Islam A R\.gradle\caches\transforms-1\files-1.1\support-vector-drawable-28.0.0.aar\b6ae3bcc951ce0091c417b8dff79b6a5\AndroidManifest.xml:20:5-44
MERGED from [com.android.support:transition:28.0.0] C:\Users\Nezamul Islam A R\.gradle\caches\transforms-1\files-1.1\transition-28.0.0.aar\70327d31ceea406246f4b9130a29e701\AndroidManifest.xml:20:5-44
MERGED from [com.android.support:transition:28.0.0] C:\Users\Nezamul Islam A R\.gradle\caches\transforms-1\files-1.1\transition-28.0.0.aar\70327d31ceea406246f4b9130a29e701\AndroidManifest.xml:20:5-44
MERGED from [com.android.support:loader:28.0.0] C:\Users\Nezamul Islam A R\.gradle\caches\transforms-1\files-1.1\loader-28.0.0.aar\c6cd08df9901d04dc6f9e2f763cd42a9\AndroidManifest.xml:20:5-44
MERGED from [com.android.support:loader:28.0.0] C:\Users\Nezamul Islam A R\.gradle\caches\transforms-1\files-1.1\loader-28.0.0.aar\c6cd08df9901d04dc6f9e2f763cd42a9\AndroidManifest.xml:20:5-44
MERGED from [com.android.support:viewpager:28.0.0] C:\Users\Nezamul Islam A R\.gradle\caches\transforms-1\files-1.1\viewpager-28.0.0.aar\499f44b69764efecd8c6366fc7974948\AndroidManifest.xml:20:5-44
MERGED from [com.android.support:viewpager:28.0.0] C:\Users\Nezamul Islam A R\.gradle\caches\transforms-1\files-1.1\viewpager-28.0.0.aar\499f44b69764efecd8c6366fc7974948\AndroidManifest.xml:20:5-44
MERGED from [com.android.support:coordinatorlayout:28.0.0] C:\Users\Nezamul Islam A R\.gradle\caches\transforms-1\files-1.1\coordinatorlayout-28.0.0.aar\f996163f40aa6cf26c87103b1d299955\AndroidManifest.xml:20:5-44
MERGED from [com.android.support:coordinatorlayout:28.0.0] C:\Users\Nezamul Islam A R\.gradle\caches\transforms-1\files-1.1\coordinatorlayout-28.0.0.aar\f996163f40aa6cf26c87103b1d299955\AndroidManifest.xml:20:5-44
MERGED from [com.android.support:drawerlayout:28.0.0] C:\Users\Nezamul Islam A R\.gradle\caches\transforms-1\files-1.1\drawerlayout-28.0.0.aar\06f4888d23808e721119b69bc0f2dc82\AndroidManifest.xml:20:5-44
MERGED from [com.android.support:drawerlayout:28.0.0] C:\Users\Nezamul Islam A R\.gradle\caches\transforms-1\files-1.1\drawerlayout-28.0.0.aar\06f4888d23808e721119b69bc0f2dc82\AndroidManifest.xml:20:5-44
MERGED from [com.android.support:slidingpanelayout:28.0.0] C:\Users\Nezamul Islam A R\.gradle\caches\transforms-1\files-1.1\slidingpanelayout-28.0.0.aar\9d6fb5c38251d15754d2710ad58e1637\AndroidManifest.xml:20:5-44
MERGED from [com.android.support:slidingpanelayout:28.0.0] C:\Users\Nezamul Islam A R\.gradle\caches\transforms-1\files-1.1\slidingpanelayout-28.0.0.aar\9d6fb5c38251d15754d2710ad58e1637\AndroidManifest.xml:20:5-44
MERGED from [com.android.support:customview:28.0.0] C:\Users\Nezamul Islam A R\.gradle\caches\transforms-1\files-1.1\customview-28.0.0.aar\7d5f6fb2067f6e3e6945e3bcad2c2777\AndroidManifest.xml:20:5-44
MERGED from [com.android.support:customview:28.0.0] C:\Users\Nezamul Islam A R\.gradle\caches\transforms-1\files-1.1\customview-28.0.0.aar\7d5f6fb2067f6e3e6945e3bcad2c2777\AndroidManifest.xml:20:5-44
MERGED from [com.android.support:swiperefreshlayout:28.0.0] C:\Users\Nezamul Islam A R\.gradle\caches\transforms-1\files-1.1\swiperefreshlayout-28.0.0.aar\4a5a5f1f3f920642dec5c6766b6eb34f\AndroidManifest.xml:20:5-44
MERGED from [com.android.support:swiperefreshlayout:28.0.0] C:\Users\Nezamul Islam A R\.gradle\caches\transforms-1\files-1.1\swiperefreshlayout-28.0.0.aar\4a5a5f1f3f920642dec5c6766b6eb34f\AndroidManifest.xml:20:5-44
MERGED from [com.android.support:asynclayoutinflater:28.0.0] C:\Users\Nezamul Islam A R\.gradle\caches\transforms-1\files-1.1\asynclayoutinflater-28.0.0.aar\52882397cee3f06385cfd4aebe1cad3b\AndroidManifest.xml:20:5-44
MERGED from [com.android.support:asynclayoutinflater:28.0.0] C:\Users\Nezamul Islam A R\.gradle\caches\transforms-1\files-1.1\asynclayoutinflater-28.0.0.aar\52882397cee3f06385cfd4aebe1cad3b\AndroidManifest.xml:20:5-44
MERGED from [com.android.support:support-media-compat:26.1.0] C:\Users\Nezamul Islam A R\.gradle\caches\transforms-1\files-1.1\support-media-compat-26.1.0.aar\60d85b47be71b438666719ee1c869528\AndroidManifest.xml:21:5-23:63
MERGED from [com.android.support:support-media-compat:26.1.0] C:\Users\Nezamul Islam A R\.gradle\caches\transforms-1\files-1.1\support-media-compat-26.1.0.aar\60d85b47be71b438666719ee1c869528\AndroidManifest.xml:21:5-23:63
MERGED from [com.android.support:support-compat:28.0.0] C:\Users\Nezamul Islam A R\.gradle\caches\transforms-1\files-1.1\support-compat-28.0.0.aar\d38228c324526c7643ea5990498b4361\AndroidManifest.xml:20:5-44
MERGED from [com.android.support:support-compat:28.0.0] C:\Users\Nezamul Islam A R\.gradle\caches\transforms-1\files-1.1\support-compat-28.0.0.aar\d38228c324526c7643ea5990498b4361\AndroidManifest.xml:20:5-44
MERGED from [com.android.support:versionedparcelable:28.0.0] C:\Users\Nezamul Islam A R\.gradle\caches\transforms-1\files-1.1\versionedparcelable-28.0.0.aar\d1b92f3b46728526d8d63191ca0b8a13\AndroidManifest.xml:20:5-44
MERGED from [com.android.support:versionedparcelable:28.0.0] C:\Users\Nezamul Islam A R\.gradle\caches\transforms-1\files-1.1\versionedparcelable-28.0.0.aar\d1b92f3b46728526d8d63191ca0b8a13\AndroidManifest.xml:20:5-44
MERGED from [com.android.support:cursoradapter:28.0.0] C:\Users\Nezamul Islam A R\.gradle\caches\transforms-1\files-1.1\cursoradapter-28.0.0.aar\9995cfdce5d4391edd0d3e155e345a27\AndroidManifest.xml:20:5-44
MERGED from [com.android.support:cursoradapter:28.0.0] C:\Users\Nezamul Islam A R\.gradle\caches\transforms-1\files-1.1\cursoradapter-28.0.0.aar\9995cfdce5d4391edd0d3e155e345a27\AndroidManifest.xml:20:5-44
MERGED from [com.android.support:cardview-v7:28.0.0] C:\Users\Nezamul Islam A R\.gradle\caches\transforms-1\files-1.1\cardview-v7-28.0.0.aar\e5f3e5b1c293b1a40ce98ab037bce7a0\AndroidManifest.xml:20:5-44
MERGED from [com.android.support:cardview-v7:28.0.0] C:\Users\Nezamul Islam A R\.gradle\caches\transforms-1\files-1.1\cardview-v7-28.0.0.aar\e5f3e5b1c293b1a40ce98ab037bce7a0\AndroidManifest.xml:20:5-44
MERGED from [android.arch.lifecycle:livedata:1.1.1] C:\Users\Nezamul Islam A R\.gradle\caches\transforms-1\files-1.1\livedata-1.1.1.aar\b9f8c1ec61b55e625e45d135b285eaa9\AndroidManifest.xml:20:5-44
MERGED from [android.arch.lifecycle:livedata:1.1.1] C:\Users\Nezamul Islam A R\.gradle\caches\transforms-1\files-1.1\livedata-1.1.1.aar\b9f8c1ec61b55e625e45d135b285eaa9\AndroidManifest.xml:20:5-44
MERGED from [android.arch.lifecycle:livedata-core:1.1.1] C:\Users\Nezamul Islam A R\.gradle\caches\transforms-1\files-1.1\livedata-core-1.1.1.aar\28dafb943c0c7486a959fef595b22e7d\AndroidManifest.xml:20:5-44
MERGED from [android.arch.lifecycle:livedata-core:1.1.1] C:\Users\Nezamul Islam A R\.gradle\caches\transforms-1\files-1.1\livedata-core-1.1.1.aar\28dafb943c0c7486a959fef595b22e7d\AndroidManifest.xml:20:5-44
MERGED from [android.arch.core:runtime:1.1.1] C:\Users\Nezamul Islam A R\.gradle\caches\transforms-1\files-1.1\runtime-1.1.1.aar\a8520c851cae4081c2c6adcf9258a69e\AndroidManifest.xml:20:5-44
MERGED from [android.arch.core:runtime:1.1.1] C:\Users\Nezamul Islam A R\.gradle\caches\transforms-1\files-1.1\runtime-1.1.1.aar\a8520c851cae4081c2c6adcf9258a69e\AndroidManifest.xml:20:5-44
MERGED from [android.arch.lifecycle:runtime:1.1.1] C:\Users\Nezamul Islam A R\.gradle\caches\transforms-1\files-1.1\runtime-1.1.1.aar\929ba62de69cf5563fc80352ff0bae99\AndroidManifest.xml:20:5-44
MERGED from [android.arch.lifecycle:runtime:1.1.1] C:\Users\Nezamul Islam A R\.gradle\caches\transforms-1\files-1.1\runtime-1.1.1.aar\929ba62de69cf5563fc80352ff0bae99\AndroidManifest.xml:20:5-44
MERGED from [com.android.support:documentfile:28.0.0] C:\Users\Nezamul Islam A R\.gradle\caches\transforms-1\files-1.1\documentfile-28.0.0.aar\a25cef491d480f775de4666e3e1db95f\AndroidManifest.xml:20:5-44
MERGED from [com.android.support:documentfile:28.0.0] C:\Users\Nezamul Islam A R\.gradle\caches\transforms-1\files-1.1\documentfile-28.0.0.aar\a25cef491d480f775de4666e3e1db95f\AndroidManifest.xml:20:5-44
MERGED from [com.android.support:localbroadcastmanager:28.0.0] C:\Users\Nezamul Islam A R\.gradle\caches\transforms-1\files-1.1\localbroadcastmanager-28.0.0.aar\8a1a2ea8c6ed8cf9b6ef2855b8e4a3dc\AndroidManifest.xml:20:5-44
MERGED from [com.android.support:localbroadcastmanager:28.0.0] C:\Users\Nezamul Islam A R\.gradle\caches\transforms-1\files-1.1\localbroadcastmanager-28.0.0.aar\8a1a2ea8c6ed8cf9b6ef2855b8e4a3dc\AndroidManifest.xml:20:5-44
MERGED from [com.android.support:print:28.0.0] C:\Users\Nezamul Islam A R\.gradle\caches\transforms-1\files-1.1\print-28.0.0.aar\767c7e5defba5ee3ea9c58a5b8b42b46\AndroidManifest.xml:20:5-44
MERGED from [com.android.support:print:28.0.0] C:\Users\Nezamul Islam A R\.gradle\caches\transforms-1\files-1.1\print-28.0.0.aar\767c7e5defba5ee3ea9c58a5b8b42b46\AndroidManifest.xml:20:5-44
MERGED from [android.arch.lifecycle:viewmodel:1.1.1] C:\Users\Nezamul Islam A R\.gradle\caches\transforms-1\files-1.1\viewmodel-1.1.1.aar\b55a3b0b9c21ef80e37d6d1fcafb4f62\AndroidManifest.xml:20:5-44
MERGED from [android.arch.lifecycle:viewmodel:1.1.1] C:\Users\Nezamul Islam A R\.gradle\caches\transforms-1\files-1.1\viewmodel-1.1.1.aar\b55a3b0b9c21ef80e37d6d1fcafb4f62\AndroidManifest.xml:20:5-44
MERGED from [com.android.support:interpolator:28.0.0] C:\Users\Nezamul Islam A R\.gradle\caches\transforms-1\files-1.1\interpolator-28.0.0.aar\aa7f968e674795b6515ceca2e38f0250\AndroidManifest.xml:20:5-44
MERGED from [com.android.support:interpolator:28.0.0] C:\Users\Nezamul Islam A R\.gradle\caches\transforms-1\files-1.1\interpolator-28.0.0.aar\aa7f968e674795b6515ceca2e38f0250\AndroidManifest.xml:20:5-44
INJECTED from F:\New folder\PickandDrop\app\src\main\AndroidManifest.xml
INJECTED from F:\New folder\PickandDrop\app\src\main\AndroidManifest.xml
	tools:overrideLibrary
		ADDED from [com.android.support:support-v4:26.1.0] C:\Users\Nezamul Islam A R\.gradle\caches\transforms-1\files-1.1\support-v4-26.1.0.aar\f580f90daf9ba18c1b44691113b937e0\AndroidManifest.xml:23:9-51
	android:targetSdkVersion
		INJECTED from F:\New folder\PickandDrop\app\src\main\AndroidManifest.xml
		ADDED from F:\New folder\PickandDrop\app\src\main\AndroidManifest.xml
		INJECTED from F:\New folder\PickandDrop\app\src\main\AndroidManifest.xml
	android:minSdkVersion
		INJECTED from F:\New folder\PickandDrop\app\src\main\AndroidManifest.xml
		ADDED from F:\New folder\PickandDrop\app\src\main\AndroidManifest.xml
		INJECTED from F:\New folder\PickandDrop\app\src\main\AndroidManifest.xml
uses-feature#0x00020000
ADDED from [com.google.android.gms:play-services-maps:16.0.0] C:\Users\Nezamul Islam A R\.gradle\caches\transforms-1\files-1.1\play-services-maps-16.0.0.aar\b800ef65f892be8e822ef31d1d6a55d1\AndroidManifest.xml:26:5-28:35
	android:glEsVersion
		ADDED from [com.google.android.gms:play-services-maps:16.0.0] C:\Users\Nezamul Islam A R\.gradle\caches\transforms-1\files-1.1\play-services-maps-16.0.0.aar\b800ef65f892be8e822ef31d1d6a55d1\AndroidManifest.xml:27:9-41
	android:required
		ADDED from [com.google.android.gms:play-services-maps:16.0.0] C:\Users\Nezamul Islam A R\.gradle\caches\transforms-1\files-1.1\play-services-maps-16.0.0.aar\b800ef65f892be8e822ef31d1d6a55d1\AndroidManifest.xml:28:9-32
uses-permission#android.permission.WAKE_LOCK
ADDED from [com.google.firebase:firebase-measurement-connector-impl:17.0.5] C:\Users\Nezamul Islam A R\.gradle\caches\transforms-1\files-1.1\firebase-measurement-connector-impl-17.0.5.aar\f6453ba96c8272557e95e171e0eaed32\AndroidManifest.xml:24:5-68
MERGED from [com.google.firebase:firebase-analytics:16.3.0] C:\Users\Nezamul Islam A R\.gradle\caches\transforms-1\files-1.1\firebase-analytics-16.3.0.aar\b388fcc95f72c9013798a41787e6dbe9\AndroidManifest.xml:25:5-68
MERGED from [com.google.firebase:firebase-analytics:16.3.0] C:\Users\Nezamul Islam A R\.gradle\caches\transforms-1\files-1.1\firebase-analytics-16.3.0.aar\b388fcc95f72c9013798a41787e6dbe9\AndroidManifest.xml:25:5-68
MERGED from [com.google.firebase:firebase-analytics-impl:16.3.0] C:\Users\Nezamul Islam A R\.gradle\caches\transforms-1\files-1.1\firebase-analytics-impl-16.3.0.aar\bf56a641fc2bcce093f6fe289463a5e8\AndroidManifest.xml:25:5-68
MERGED from [com.google.firebase:firebase-analytics-impl:16.3.0] C:\Users\Nezamul Islam A R\.gradle\caches\transforms-1\files-1.1\firebase-analytics-impl-16.3.0.aar\bf56a641fc2bcce093f6fe289463a5e8\AndroidManifest.xml:25:5-68
MERGED from [com.google.firebase:firebase-iid:17.0.3] C:\Users\Nezamul Islam A R\.gradle\caches\transforms-1\files-1.1\firebase-iid-17.0.3.aar\d85e6fbd56ae18b452d55f4ff896b738\AndroidManifest.xml:24:5-68
MERGED from [com.google.firebase:firebase-iid:17.0.3] C:\Users\Nezamul Islam A R\.gradle\caches\transforms-1\files-1.1\firebase-iid-17.0.3.aar\d85e6fbd56ae18b452d55f4ff896b738\AndroidManifest.xml:24:5-68
	android:name
		ADDED from [com.google.firebase:firebase-measurement-connector-impl:17.0.5] C:\Users\Nezamul Islam A R\.gradle\caches\transforms-1\files-1.1\firebase-measurement-connector-impl-17.0.5.aar\f6453ba96c8272557e95e171e0eaed32\AndroidManifest.xml:24:22-65
service#com.google.firebase.components.ComponentDiscoveryService
ADDED from [com.google.firebase:firebase-measurement-connector-impl:17.0.5] C:\Users\Nezamul Islam A R\.gradle\caches\transforms-1\files-1.1\firebase-measurement-connector-impl-17.0.5.aar\f6453ba96c8272557e95e171e0eaed32\AndroidManifest.xml:27:9-31:19
MERGED from [com.google.firebase:firebase-iid:17.0.3] C:\Users\Nezamul Islam A R\.gradle\caches\transforms-1\files-1.1\firebase-iid-17.0.3.aar\d85e6fbd56ae18b452d55f4ff896b738\AndroidManifest.xml:29:9-35:19
MERGED from [com.google.firebase:firebase-iid:17.0.3] C:\Users\Nezamul Islam A R\.gradle\caches\transforms-1\files-1.1\firebase-iid-17.0.3.aar\d85e6fbd56ae18b452d55f4ff896b738\AndroidManifest.xml:29:9-35:19
	android:exported
		ADDED from [com.google.firebase:firebase-iid:17.0.3] C:\Users\Nezamul Islam A R\.gradle\caches\transforms-1\files-1.1\firebase-iid-17.0.3.aar\d85e6fbd56ae18b452d55f4ff896b738\AndroidManifest.xml:31:13-37
	android:name
		ADDED from [com.google.firebase:firebase-measurement-connector-impl:17.0.5] C:\Users\Nezamul Islam A R\.gradle\caches\transforms-1\files-1.1\firebase-measurement-connector-impl-17.0.5.aar\f6453ba96c8272557e95e171e0eaed32\AndroidManifest.xml:27:18-89
meta-data#com.google.firebase.components:com.google.firebase.analytics.connector.internal.AnalyticsConnectorRegistrar
ADDED from [com.google.firebase:firebase-measurement-connector-impl:17.0.5] C:\Users\Nezamul Islam A R\.gradle\caches\transforms-1\files-1.1\firebase-measurement-connector-impl-17.0.5.aar\f6453ba96c8272557e95e171e0eaed32\AndroidManifest.xml:28:13-30:85
	android:value
		ADDED from [com.google.firebase:firebase-measurement-connector-impl:17.0.5] C:\Users\Nezamul Islam A R\.gradle\caches\transforms-1\files-1.1\firebase-measurement-connector-impl-17.0.5.aar\f6453ba96c8272557e95e171e0eaed32\AndroidManifest.xml:30:17-82
	android:name
		ADDED from [com.google.firebase:firebase-measurement-connector-impl:17.0.5] C:\Users\Nezamul Islam A R\.gradle\caches\transforms-1\files-1.1\firebase-measurement-connector-impl-17.0.5.aar\f6453ba96c8272557e95e171e0eaed32\AndroidManifest.xml:29:17-139
uses-permission#com.google.android.finsky.permission.BIND_GET_INSTALL_REFERRER_SERVICE
ADDED from [com.google.firebase:firebase-analytics:16.3.0] C:\Users\Nezamul Islam A R\.gradle\caches\transforms-1\files-1.1\firebase-analytics-16.3.0.aar\b388fcc95f72c9013798a41787e6dbe9\AndroidManifest.xml:26:5-110
MERGED from [com.google.firebase:firebase-analytics-impl:16.3.0] C:\Users\Nezamul Islam A R\.gradle\caches\transforms-1\files-1.1\firebase-analytics-impl-16.3.0.aar\bf56a641fc2bcce093f6fe289463a5e8\AndroidManifest.xml:26:5-110
MERGED from [com.google.firebase:firebase-analytics-impl:16.3.0] C:\Users\Nezamul Islam A R\.gradle\caches\transforms-1\files-1.1\firebase-analytics-impl-16.3.0.aar\bf56a641fc2bcce093f6fe289463a5e8\AndroidManifest.xml:26:5-110
	android:name
		ADDED from [com.google.firebase:firebase-analytics:16.3.0] C:\Users\Nezamul Islam A R\.gradle\caches\transforms-1\files-1.1\firebase-analytics-16.3.0.aar\b388fcc95f72c9013798a41787e6dbe9\AndroidManifest.xml:26:22-107
receiver#com.google.android.gms.measurement.AppMeasurementReceiver
ADDED from [com.google.firebase:firebase-analytics:16.3.0] C:\Users\Nezamul Islam A R\.gradle\caches\transforms-1\files-1.1\firebase-analytics-16.3.0.aar\b388fcc95f72c9013798a41787e6dbe9\AndroidManifest.xml:29:9-33:20
	android:enabled
		ADDED from [com.google.firebase:firebase-analytics:16.3.0] C:\Users\Nezamul Islam A R\.gradle\caches\transforms-1\files-1.1\firebase-analytics-16.3.0.aar\b388fcc95f72c9013798a41787e6dbe9\AndroidManifest.xml:31:13-35
	android:exported
		ADDED from [com.google.firebase:firebase-analytics:16.3.0] C:\Users\Nezamul Islam A R\.gradle\caches\transforms-1\files-1.1\firebase-analytics-16.3.0.aar\b388fcc95f72c9013798a41787e6dbe9\AndroidManifest.xml:32:13-37
	android:name
		ADDED from [com.google.firebase:firebase-analytics:16.3.0] C:\Users\Nezamul Islam A R\.gradle\caches\transforms-1\files-1.1\firebase-analytics-16.3.0.aar\b388fcc95f72c9013798a41787e6dbe9\AndroidManifest.xml:30:13-85
receiver#com.google.android.gms.measurement.AppMeasurementInstallReferrerReceiver
ADDED from [com.google.firebase:firebase-analytics:16.3.0] C:\Users\Nezamul Islam A R\.gradle\caches\transforms-1\files-1.1\firebase-analytics-16.3.0.aar\b388fcc95f72c9013798a41787e6dbe9\AndroidManifest.xml:34:9-42:20
MERGED from [com.google.firebase:firebase-analytics-impl:16.3.0] C:\Users\Nezamul Islam A R\.gradle\caches\transforms-1\files-1.1\firebase-analytics-impl-16.3.0.aar\bf56a641fc2bcce093f6fe289463a5e8\AndroidManifest.xml:29:9-37:20
MERGED from [com.google.firebase:firebase-analytics-impl:16.3.0] C:\Users\Nezamul Islam A R\.gradle\caches\transforms-1\files-1.1\firebase-analytics-impl-16.3.0.aar\bf56a641fc2bcce093f6fe289463a5e8\AndroidManifest.xml:29:9-37:20
	android:enabled
		ADDED from [com.google.firebase:firebase-analytics:16.3.0] C:\Users\Nezamul Islam A R\.gradle\caches\transforms-1\files-1.1\firebase-analytics-16.3.0.aar\b388fcc95f72c9013798a41787e6dbe9\AndroidManifest.xml:36:13-35
	android:exported
		ADDED from [com.google.firebase:firebase-analytics:16.3.0] C:\Users\Nezamul Islam A R\.gradle\caches\transforms-1\files-1.1\firebase-analytics-16.3.0.aar\b388fcc95f72c9013798a41787e6dbe9\AndroidManifest.xml:37:13-36
	android:permission
		ADDED from [com.google.firebase:firebase-analytics:16.3.0] C:\Users\Nezamul Islam A R\.gradle\caches\transforms-1\files-1.1\firebase-analytics-16.3.0.aar\b388fcc95f72c9013798a41787e6dbe9\AndroidManifest.xml:38:13-69
	android:name
		ADDED from [com.google.firebase:firebase-analytics:16.3.0] C:\Users\Nezamul Islam A R\.gradle\caches\transforms-1\files-1.1\firebase-analytics-16.3.0.aar\b388fcc95f72c9013798a41787e6dbe9\AndroidManifest.xml:35:13-100
intent-filter#action:name:com.android.vending.INSTALL_REFERRER
ADDED from [com.google.firebase:firebase-analytics:16.3.0] C:\Users\Nezamul Islam A R\.gradle\caches\transforms-1\files-1.1\firebase-analytics-16.3.0.aar\b388fcc95f72c9013798a41787e6dbe9\AndroidManifest.xml:39:13-41:29
action#com.android.vending.INSTALL_REFERRER
ADDED from [com.google.firebase:firebase-analytics:16.3.0] C:\Users\Nezamul Islam A R\.gradle\caches\transforms-1\files-1.1\firebase-analytics-16.3.0.aar\b388fcc95f72c9013798a41787e6dbe9\AndroidManifest.xml:40:17-79
	android:name
		ADDED from [com.google.firebase:firebase-analytics:16.3.0] C:\Users\Nezamul Islam A R\.gradle\caches\transforms-1\files-1.1\firebase-analytics-16.3.0.aar\b388fcc95f72c9013798a41787e6dbe9\AndroidManifest.xml:40:25-76
service#com.google.android.gms.measurement.AppMeasurementService
ADDED from [com.google.firebase:firebase-analytics:16.3.0] C:\Users\Nezamul Islam A R\.gradle\caches\transforms-1\files-1.1\firebase-analytics-16.3.0.aar\b388fcc95f72c9013798a41787e6dbe9\AndroidManifest.xml:44:9-47:40
	android:enabled
		ADDED from [com.google.firebase:firebase-analytics:16.3.0] C:\Users\Nezamul Islam A R\.gradle\caches\transforms-1\files-1.1\firebase-analytics-16.3.0.aar\b388fcc95f72c9013798a41787e6dbe9\AndroidManifest.xml:46:13-35
	android:exported
		ADDED from [com.google.firebase:firebase-analytics:16.3.0] C:\Users\Nezamul Islam A R\.gradle\caches\transforms-1\files-1.1\firebase-analytics-16.3.0.aar\b388fcc95f72c9013798a41787e6dbe9\AndroidManifest.xml:47:13-37
	android:name
		ADDED from [com.google.firebase:firebase-analytics:16.3.0] C:\Users\Nezamul Islam A R\.gradle\caches\transforms-1\files-1.1\firebase-analytics-16.3.0.aar\b388fcc95f72c9013798a41787e6dbe9\AndroidManifest.xml:45:13-84
service#com.google.android.gms.measurement.AppMeasurementJobService
ADDED from [com.google.firebase:firebase-analytics:16.3.0] C:\Users\Nezamul Islam A R\.gradle\caches\transforms-1\files-1.1\firebase-analytics-16.3.0.aar\b388fcc95f72c9013798a41787e6dbe9\AndroidManifest.xml:48:9-52:72
	android:enabled
		ADDED from [com.google.firebase:firebase-analytics:16.3.0] C:\Users\Nezamul Islam A R\.gradle\caches\transforms-1\files-1.1\firebase-analytics-16.3.0.aar\b388fcc95f72c9013798a41787e6dbe9\AndroidManifest.xml:50:13-35
	android:exported
		ADDED from [com.google.firebase:firebase-analytics:16.3.0] C:\Users\Nezamul Islam A R\.gradle\caches\transforms-1\files-1.1\firebase-analytics-16.3.0.aar\b388fcc95f72c9013798a41787e6dbe9\AndroidManifest.xml:51:13-37
	android:permission
		ADDED from [com.google.firebase:firebase-analytics:16.3.0] C:\Users\Nezamul Islam A R\.gradle\caches\transforms-1\files-1.1\firebase-analytics-16.3.0.aar\b388fcc95f72c9013798a41787e6dbe9\AndroidManifest.xml:52:13-69
	android:name
		ADDED from [com.google.firebase:firebase-analytics:16.3.0] C:\Users\Nezamul Islam A R\.gradle\caches\transforms-1\files-1.1\firebase-analytics-16.3.0.aar\b388fcc95f72c9013798a41787e6dbe9\AndroidManifest.xml:49:13-87
uses-permission#com.google.android.c2dm.permission.RECEIVE
ADDED from [com.google.firebase:firebase-iid:17.0.3] C:\Users\Nezamul Islam A R\.gradle\caches\transforms-1\files-1.1\firebase-iid-17.0.3.aar\d85e6fbd56ae18b452d55f4ff896b738\AndroidManifest.xml:26:5-82
	android:name
		ADDED from [com.google.firebase:firebase-iid:17.0.3] C:\Users\Nezamul Islam A R\.gradle\caches\transforms-1\files-1.1\firebase-iid-17.0.3.aar\d85e6fbd56ae18b452d55f4ff896b738\AndroidManifest.xml:26:22-79
meta-data#com.google.firebase.components:com.google.firebase.iid.Registrar
ADDED from [com.google.firebase:firebase-iid:17.0.3] C:\Users\Nezamul Islam A R\.gradle\caches\transforms-1\files-1.1\firebase-iid-17.0.3.aar\d85e6fbd56ae18b452d55f4ff896b738\AndroidManifest.xml:32:13-34:85
	android:value
		ADDED from [com.google.firebase:firebase-iid:17.0.3] C:\Users\Nezamul Islam A R\.gradle\caches\transforms-1\files-1.1\firebase-iid-17.0.3.aar\d85e6fbd56ae18b452d55f4ff896b738\AndroidManifest.xml:34:17-82
	android:name
		ADDED from [com.google.firebase:firebase-iid:17.0.3] C:\Users\Nezamul Islam A R\.gradle\caches\transforms-1\files-1.1\firebase-iid-17.0.3.aar\d85e6fbd56ae18b452d55f4ff896b738\AndroidManifest.xml:33:17-96
receiver#com.google.firebase.iid.FirebaseInstanceIdReceiver
ADDED from [com.google.firebase:firebase-iid:17.0.3] C:\Users\Nezamul Islam A R\.gradle\caches\transforms-1\files-1.1\firebase-iid-17.0.3.aar\d85e6fbd56ae18b452d55f4ff896b738\AndroidManifest.xml:37:9-44:20
	android:exported
		ADDED from [com.google.firebase:firebase-iid:17.0.3] C:\Users\Nezamul Islam A R\.gradle\caches\transforms-1\files-1.1\firebase-iid-17.0.3.aar\d85e6fbd56ae18b452d55f4ff896b738\AndroidManifest.xml:39:13-36
	android:permission
		ADDED from [com.google.firebase:firebase-iid:17.0.3] C:\Users\Nezamul Islam A R\.gradle\caches\transforms-1\files-1.1\firebase-iid-17.0.3.aar\d85e6fbd56ae18b452d55f4ff896b738\AndroidManifest.xml:40:13-73
	android:name
		ADDED from [com.google.firebase:firebase-iid:17.0.3] C:\Users\Nezamul Islam A R\.gradle\caches\transforms-1\files-1.1\firebase-iid-17.0.3.aar\d85e6fbd56ae18b452d55f4ff896b738\AndroidManifest.xml:38:13-78
intent-filter#action:name:com.google.android.c2dm.intent.RECEIVE
ADDED from [com.google.firebase:firebase-iid:17.0.3] C:\Users\Nezamul Islam A R\.gradle\caches\transforms-1\files-1.1\firebase-iid-17.0.3.aar\d85e6fbd56ae18b452d55f4ff896b738\AndroidManifest.xml:41:13-43:29
action#com.google.android.c2dm.intent.RECEIVE
ADDED from [com.google.firebase:firebase-iid:17.0.3] C:\Users\Nezamul Islam A R\.gradle\caches\transforms-1\files-1.1\firebase-iid-17.0.3.aar\d85e6fbd56ae18b452d55f4ff896b738\AndroidManifest.xml:42:17-81
	android:name
		ADDED from [com.google.firebase:firebase-iid:17.0.3] C:\Users\Nezamul Islam A R\.gradle\caches\transforms-1\files-1.1\firebase-iid-17.0.3.aar\d85e6fbd56ae18b452d55f4ff896b738\AndroidManifest.xml:42:25-78
service#com.google.firebase.iid.FirebaseInstanceIdService
ADDED from [com.google.firebase:firebase-iid:17.0.3] C:\Users\Nezamul Islam A R\.gradle\caches\transforms-1\files-1.1\firebase-iid-17.0.3.aar\d85e6fbd56ae18b452d55f4ff896b738\AndroidManifest.xml:50:9-56:19
	android:exported
		ADDED from [com.google.firebase:firebase-iid:17.0.3] C:\Users\Nezamul Islam A R\.gradle\caches\transforms-1\files-1.1\firebase-iid-17.0.3.aar\d85e6fbd56ae18b452d55f4ff896b738\AndroidManifest.xml:52:13-36
	android:name
		ADDED from [com.google.firebase:firebase-iid:17.0.3] C:\Users\Nezamul Islam A R\.gradle\caches\transforms-1\files-1.1\firebase-iid-17.0.3.aar\d85e6fbd56ae18b452d55f4ff896b738\AndroidManifest.xml:51:13-77
intent-filter#action:name:com.google.firebase.INSTANCE_ID_EVENT
ADDED from [com.google.firebase:firebase-iid:17.0.3] C:\Users\Nezamul Islam A R\.gradle\caches\transforms-1\files-1.1\firebase-iid-17.0.3.aar\d85e6fbd56ae18b452d55f4ff896b738\AndroidManifest.xml:53:13-55:29
	android:priority
		ADDED from [com.google.firebase:firebase-iid:17.0.3] C:\Users\Nezamul Islam A R\.gradle\caches\transforms-1\files-1.1\firebase-iid-17.0.3.aar\d85e6fbd56ae18b452d55f4ff896b738\AndroidManifest.xml:53:28-51
action#com.google.firebase.INSTANCE_ID_EVENT
ADDED from [com.google.firebase:firebase-iid:17.0.3] C:\Users\Nezamul Islam A R\.gradle\caches\transforms-1\files-1.1\firebase-iid-17.0.3.aar\d85e6fbd56ae18b452d55f4ff896b738\AndroidManifest.xml:54:17-80
	android:name
		ADDED from [com.google.firebase:firebase-iid:17.0.3] C:\Users\Nezamul Islam A R\.gradle\caches\transforms-1\files-1.1\firebase-iid-17.0.3.aar\d85e6fbd56ae18b452d55f4ff896b738\AndroidManifest.xml:54:25-77
activity#com.google.android.gms.common.api.GoogleApiActivity
ADDED from [com.google.android.gms:play-services-base:16.0.1] C:\Users\Nezamul Islam A R\.gradle\caches\transforms-1\files-1.1\play-services-base-16.0.1.aar\d05afb522c487187c3a5dccdfa82015b\AndroidManifest.xml:23:9-26:75
	android:exported
		ADDED from [com.google.android.gms:play-services-base:16.0.1] C:\Users\Nezamul Islam A R\.gradle\caches\transforms-1\files-1.1\play-services-base-16.0.1.aar\d05afb522c487187c3a5dccdfa82015b\AndroidManifest.xml:25:13-37
	android:theme
		ADDED from [com.google.android.gms:play-services-base:16.0.1] C:\Users\Nezamul Islam A R\.gradle\caches\transforms-1\files-1.1\play-services-base-16.0.1.aar\d05afb522c487187c3a5dccdfa82015b\AndroidManifest.xml:26:13-72
	android:name
		ADDED from [com.google.android.gms:play-services-base:16.0.1] C:\Users\Nezamul Islam A R\.gradle\caches\transforms-1\files-1.1\play-services-base-16.0.1.aar\d05afb522c487187c3a5dccdfa82015b\AndroidManifest.xml:24:13-79
provider#com.google.firebase.provider.FirebaseInitProvider
ADDED from [com.google.firebase:firebase-common:16.0.3] C:\Users\Nezamul Islam A R\.gradle\caches\transforms-1\files-1.1\firebase-common-16.0.3.aar\4f2d0e282b536472ae01116e450a2719\AndroidManifest.xml:10:9-14:39
	android:authorities
		ADDED from [com.google.firebase:firebase-common:16.0.3] C:\Users\Nezamul Islam A R\.gradle\caches\transforms-1\files-1.1\firebase-common-16.0.3.aar\4f2d0e282b536472ae01116e450a2719\AndroidManifest.xml:12:13-72
	android:exported
		ADDED from [com.google.firebase:firebase-common:16.0.3] C:\Users\Nezamul Islam A R\.gradle\caches\transforms-1\files-1.1\firebase-common-16.0.3.aar\4f2d0e282b536472ae01116e450a2719\AndroidManifest.xml:13:13-37
	android:initOrder
		ADDED from [com.google.firebase:firebase-common:16.0.3] C:\Users\Nezamul Islam A R\.gradle\caches\transforms-1\files-1.1\firebase-common-16.0.3.aar\4f2d0e282b536472ae01116e450a2719\AndroidManifest.xml:14:13-36
	android:name
		ADDED from [com.google.firebase:firebase-common:16.0.3] C:\Users\Nezamul Islam A R\.gradle\caches\transforms-1\files-1.1\firebase-common-16.0.3.aar\4f2d0e282b536472ae01116e450a2719\AndroidManifest.xml:11:13-77
meta-data#com.google.android.gms.version
ADDED from [com.google.android.gms:play-services-basement:16.0.1] C:\Users\Nezamul Islam A R\.gradle\caches\transforms-1\files-1.1\play-services-basement-16.0.1.aar\ff510168ec72f5182c358422ee98c67b\AndroidManifest.xml:23:9-25:69
	android:value
		ADDED from [com.google.android.gms:play-services-basement:16.0.1] C:\Users\Nezamul Islam A R\.gradle\caches\transforms-1\files-1.1\play-services-basement-16.0.1.aar\ff510168ec72f5182c358422ee98c67b\AndroidManifest.xml:25:13-66
	android:name
		ADDED from [com.google.android.gms:play-services-basement:16.0.1] C:\Users\Nezamul Islam A R\.gradle\caches\transforms-1\files-1.1\play-services-basement-16.0.1.aar\ff510168ec72f5182c358422ee98c67b\AndroidManifest.xml:24:13-58
meta-data#android.support.VERSION
ADDED from [com.android.support:support-v4:26.1.0] C:\Users\Nezamul Islam A R\.gradle\caches\transforms-1\files-1.1\support-v4-26.1.0.aar\f580f90daf9ba18c1b44691113b937e0\AndroidManifest.xml:26:9-28:38
MERGED from [com.android.support:support-media-compat:26.1.0] C:\Users\Nezamul Islam A R\.gradle\caches\transforms-1\files-1.1\support-media-compat-26.1.0.aar\60d85b47be71b438666719ee1c869528\AndroidManifest.xml:26:9-28:38
MERGED from [com.android.support:support-media-compat:26.1.0] C:\Users\Nezamul Islam A R\.gradle\caches\transforms-1\files-1.1\support-media-compat-26.1.0.aar\60d85b47be71b438666719ee1c869528\AndroidManifest.xml:26:9-28:38
	android:value
		ADDED from [com.android.support:support-v4:26.1.0] C:\Users\Nezamul Islam A R\.gradle\caches\transforms-1\files-1.1\support-v4-26.1.0.aar\f580f90daf9ba18c1b44691113b937e0\AndroidManifest.xml:28:13-35
	android:name
		ADDED from [com.android.support:support-v4:26.1.0] C:\Users\Nezamul Islam A R\.gradle\caches\transforms-1\files-1.1\support-v4-26.1.0.aar\f580f90daf9ba18c1b44691113b937e0\AndroidManifest.xml:27:13-51
